 fdisk -l | grep sdf
Disk /dev/sdf: 931.51 GiB, 1000204886016 bytes, 1953525168 sectors
/dev/sdf1            2048   14682111   14680064     7G 83 Linux
/dev/sdf2        14682112  148899839  134217728    64G 83 Linux
/dev/sdf3       148899840 1953525167 1804625328 860.5G 83 Linux
