Aug 17 18:47:35 localhost syslogd[1447]: syslogd v2.3.0: restart.
Aug 17 18:47:29 localhost kernel: Linux version 5.15.59-gentoo (root@sysrescue) (gcc (Gentoo 11.3.0 p4) 11.3.0, GNU ld (Gentoo 2.38 p4) 2.38) #3 SMP Wed Aug 17 16:14:34 -00 2022
Aug 17 18:47:29 localhost kernel: Command line: BOOT_IMAGE=/vmlinuz-5.15.59-gentoo root=/dev/sda3 ro
Aug 17 18:47:29 localhost kernel: x86/fpu: Supporting XSAVE feature 0x001: 'x87 floating point registers'
Aug 17 18:47:29 localhost kernel: x86/fpu: Supporting XSAVE feature 0x002: 'SSE registers'
Aug 17 18:47:29 localhost kernel: x86/fpu: Supporting XSAVE feature 0x004: 'AVX registers'
Aug 17 18:47:29 localhost kernel: x86/fpu: xstate_offset[2]:  576, xstate_sizes[2]:  256
Aug 17 18:47:29 localhost kernel: x86/fpu: Enabled xstate features 0x7, context size is 832 bytes, using 'standard' format.
Aug 17 18:47:29 localhost kernel: signal: max sigframe size: 1776
Aug 17 18:47:29 localhost kernel: BIOS-provided physical RAM map:
Aug 17 18:47:29 localhost kernel: BIOS-e820: [mem 0x0000000000000000-0x000000000009e7ff] usable
Aug 17 18:47:29 localhost kernel: BIOS-e820: [mem 0x000000000009e800-0x000000000009ffff] reserved
Aug 17 18:47:29 localhost kernel: BIOS-e820: [mem 0x00000000000e0000-0x00000000000fffff] reserved
Aug 17 18:47:29 localhost kernel: BIOS-e820: [mem 0x0000000000100000-0x00000000cc7c7fff] usable
Aug 17 18:47:29 localhost kernel: BIOS-e820: [mem 0x00000000cc7c8000-0x00000000ccd6ffff] reserved
Aug 17 18:47:29 localhost kernel: BIOS-e820: [mem 0x00000000ccd70000-0x00000000ccd7ffff] ACPI data
Aug 17 18:47:29 localhost kernel: BIOS-e820: [mem 0x00000000ccd80000-0x00000000cd183fff] ACPI NVS
Aug 17 18:47:29 localhost kernel: BIOS-e820: [mem 0x00000000cd184000-0x00000000cd67afff] reserved
Aug 17 18:47:29 localhost kernel: BIOS-e820: [mem 0x00000000cd67b000-0x00000000cd67bfff] usable
Aug 17 18:47:29 localhost kernel: BIOS-e820: [mem 0x00000000cd67c000-0x00000000cd87efff] ACPI NVS
Aug 17 18:47:29 localhost kernel: BIOS-e820: [mem 0x00000000cd87f000-0x00000000cdca5fff] usable
Aug 17 18:47:29 localhost kernel: BIOS-e820: [mem 0x00000000cdca6000-0x00000000cdff3fff] reserved
Aug 17 18:47:29 localhost kernel: BIOS-e820: [mem 0x00000000cdff4000-0x00000000cdffffff] usable
Aug 17 18:47:29 localhost kernel: BIOS-e820: [mem 0x00000000e0000000-0x00000000efffffff] reserved
Aug 17 18:47:29 localhost kernel: BIOS-e820: [mem 0x00000000fed1c000-0x00000000fed1ffff] reserved
Aug 17 18:47:29 localhost kernel: BIOS-e820: [mem 0x00000000ff000000-0x00000000ffffffff] reserved
Aug 17 18:47:29 localhost kernel: BIOS-e820: [mem 0x0000000100000000-0x000000102fffffff] usable
Aug 17 18:47:29 localhost kernel: NX (Execute Disable) protection: active
Aug 17 18:47:29 localhost kernel: SMBIOS 2.7 present.
Aug 17 18:47:29 localhost kernel: DMI: System manufacturer System Product Name/RAMPAGE IV EXTREME, BIOS 2105 08/04/2012
Aug 17 18:47:29 localhost kernel: tsc: Fast TSC calibration using PIT
Aug 17 18:47:29 localhost kernel: tsc: Detected 3200.003 MHz processor
Aug 17 18:47:29 localhost kernel: e820: update [mem 0x00000000-0x00000fff] usable ==> reserved
Aug 17 18:47:29 localhost kernel: e820: remove [mem 0x000a0000-0x000fffff] usable
Aug 17 18:47:29 localhost kernel: last_pfn = 0x1030000 max_arch_pfn = 0x400000000
Aug 17 18:47:29 localhost kernel: x86/PAT: Configuration [0-7]: WB  WC  UC- UC  WB  WP  UC- WT  
Aug 17 18:47:29 localhost kernel: e820: update [mem 0xcf000000-0xffffffff] usable ==> reserved
Aug 17 18:47:29 localhost kernel: last_pfn = 0xce000 max_arch_pfn = 0x400000000
Aug 17 18:47:29 localhost kernel: found SMP MP-table at [mem 0x000fd930-0x000fd93f]
Aug 17 18:47:29 localhost kernel: Using GB pages for direct mapping
Aug 17 18:47:29 localhost kernel: ACPI: Early table checksum verification disabled
Aug 17 18:47:29 localhost kernel: ACPI: RSDP 0x00000000000F0490 000024 (v02 ALASKA)
Aug 17 18:47:29 localhost kernel: ACPI: XSDT 0x00000000CCD77070 00005C (v01 ALASKA A M I    01072009 AMI  00010013)
Aug 17 18:47:29 localhost kernel: ACPI: FACP 0x00000000CCD7F038 00010C (v05 ALASKA A M I    01072009 AMI  00010013)
Aug 17 18:47:29 localhost kernel: ACPI: DSDT 0x00000000CCD77168 007ECC (v02 ALASKA A M I    00000010 INTL 20051117)
Aug 17 18:47:29 localhost kernel: ACPI: FACS 0x00000000CD17B080 000040
Aug 17 18:47:29 localhost kernel: ACPI: APIC 0x00000000CCD7F148 000100 (v03 ALASKA A M I    01072009 AMI  00010013)
Aug 17 18:47:29 localhost kernel: ACPI: FPDT 0x00000000CCD7F248 000044 (v01 ALASKA A M I    01072009 AMI  00010013)
Aug 17 18:47:29 localhost kernel: ACPI: SSDT 0x00000000CCD7F290 0002AA (v01 AMICPU PROC     00000001 MSFT 03000001)
Aug 17 18:47:29 localhost kernel: ACPI: MCFG 0x00000000CCD7F540 00003C (v01 ALASKA OEMMCFG. 01072009 MSFT 00000097)
Aug 17 18:47:29 localhost kernel: ACPI: HPET 0x00000000CCD7F580 000038 (v01 ALASKA A M I    01072009 AMI. 00000005)
Aug 17 18:47:29 localhost kernel: ACPI: BGRT 0x00000000CCD7F610 000038 (v00 ALASKA A M I    01072009 AMI  00010013)
Aug 17 18:47:29 localhost kernel: ACPI: Reserving FACP table memory at [mem 0xccd7f038-0xccd7f143]
Aug 17 18:47:29 localhost kernel: ACPI: Reserving DSDT table memory at [mem 0xccd77168-0xccd7f033]
Aug 17 18:47:29 localhost kernel: ACPI: Reserving FACS table memory at [mem 0xcd17b080-0xcd17b0bf]
Aug 17 18:47:29 localhost kernel: ACPI: Reserving APIC table memory at [mem 0xccd7f148-0xccd7f247]
Aug 17 18:47:29 localhost kernel: ACPI: Reserving FPDT table memory at [mem 0xccd7f248-0xccd7f28b]
Aug 17 18:47:29 localhost kernel: ACPI: Reserving SSDT table memory at [mem 0xccd7f290-0xccd7f539]
Aug 17 18:47:29 localhost kernel: ACPI: Reserving MCFG table memory at [mem 0xccd7f540-0xccd7f57b]
Aug 17 18:47:29 localhost kernel: ACPI: Reserving HPET table memory at [mem 0xccd7f580-0xccd7f5b7]
Aug 17 18:47:29 localhost kernel: ACPI: Reserving BGRT table memory at [mem 0xccd7f610-0xccd7f647]
Aug 17 18:47:29 localhost kernel: No NUMA configuration found
Aug 17 18:47:29 localhost kernel: Faking a node at [mem 0x0000000000000000-0x000000102fffffff]
Aug 17 18:47:29 localhost kernel: NODE_DATA(0) allocated [mem 0x102fffc000-0x102fffffff]
Aug 17 18:47:29 localhost kernel: Zone ranges:
Aug 17 18:47:29 localhost kernel:   DMA      [mem 0x0000000000001000-0x0000000000ffffff]
Aug 17 18:47:29 localhost kernel:   DMA32    [mem 0x0000000001000000-0x00000000ffffffff]
Aug 17 18:47:29 localhost kernel:   Normal   [mem 0x0000000100000000-0x000000102fffffff]
Aug 17 18:47:29 localhost kernel: Movable zone start for each node
Aug 17 18:47:29 localhost kernel: Early memory node ranges
Aug 17 18:47:29 localhost kernel:   node   0: [mem 0x0000000000001000-0x000000000009dfff]
Aug 17 18:47:29 localhost kernel:   node   0: [mem 0x0000000000100000-0x00000000cc7c7fff]
Aug 17 18:47:29 localhost kernel:   node   0: [mem 0x00000000cd67b000-0x00000000cd67bfff]
Aug 17 18:47:29 localhost kernel:   node   0: [mem 0x00000000cd87f000-0x00000000cdca5fff]
Aug 17 18:47:29 localhost kernel:   node   0: [mem 0x00000000cdff4000-0x00000000cdffffff]
Aug 17 18:47:29 localhost kernel:   node   0: [mem 0x0000000100000000-0x000000102fffffff]
Aug 17 18:47:29 localhost kernel: Initmem setup node 0 [mem 0x0000000000001000-0x000000102fffffff]
Aug 17 18:47:29 localhost kernel: On node 0, zone DMA: 1 pages in unavailable ranges
Aug 17 18:47:29 localhost kernel: On node 0, zone DMA: 98 pages in unavailable ranges
Aug 17 18:47:29 localhost kernel: On node 0, zone DMA32: 3763 pages in unavailable ranges
Aug 17 18:47:29 localhost kernel: On node 0, zone DMA32: 515 pages in unavailable ranges
Aug 17 18:47:29 localhost kernel: On node 0, zone DMA32: 846 pages in unavailable ranges
Aug 17 18:47:29 localhost kernel: On node 0, zone Normal: 8192 pages in unavailable ranges
Aug 17 18:47:29 localhost kernel: ACPI: PM-Timer IO Port: 0x408
Aug 17 18:47:29 localhost kernel: ACPI: LAPIC_NMI (acpi_id[0x00] high edge lint[0x1])
Aug 17 18:47:29 localhost kernel: ACPI: LAPIC_NMI (acpi_id[0x02] high edge lint[0x1])
Aug 17 18:47:29 localhost kernel: ACPI: LAPIC_NMI (acpi_id[0x04] high edge lint[0x1])
Aug 17 18:47:29 localhost kernel: ACPI: LAPIC_NMI (acpi_id[0x06] high edge lint[0x1])
Aug 17 18:47:29 localhost kernel: ACPI: LAPIC_NMI (acpi_id[0x08] high edge lint[0x1])
Aug 17 18:47:29 localhost kernel: ACPI: LAPIC_NMI (acpi_id[0x0a] high edge lint[0x1])
Aug 17 18:47:29 localhost kernel: ACPI: LAPIC_NMI (acpi_id[0x01] high edge lint[0x1])
Aug 17 18:47:29 localhost kernel: ACPI: LAPIC_NMI (acpi_id[0x03] high edge lint[0x1])
Aug 17 18:47:29 localhost kernel: ACPI: LAPIC_NMI (acpi_id[0x05] high edge lint[0x1])
Aug 17 18:47:29 localhost kernel: ACPI: LAPIC_NMI (acpi_id[0x07] high edge lint[0x1])
Aug 17 18:47:29 localhost kernel: ACPI: LAPIC_NMI (acpi_id[0x09] high edge lint[0x1])
Aug 17 18:47:29 localhost kernel: ACPI: LAPIC_NMI (acpi_id[0x0b] high edge lint[0x1])
Aug 17 18:47:29 localhost kernel: IOAPIC[0]: apic_id 0, version 32, address 0xfec00000, GSI 0-23
Aug 17 18:47:29 localhost kernel: IOAPIC[1]: apic_id 2, version 32, address 0xfec01000, GSI 24-47
Aug 17 18:47:29 localhost kernel: ACPI: INT_SRC_OVR (bus 0 bus_irq 0 global_irq 2 dfl dfl)
Aug 17 18:47:29 localhost kernel: ACPI: INT_SRC_OVR (bus 0 bus_irq 9 global_irq 9 high level)
Aug 17 18:47:29 localhost kernel: ACPI: Using ACPI (MADT) for SMP configuration information
Aug 17 18:47:29 localhost kernel: ACPI: HPET id: 0x8086a701 base: 0xfed00000
Aug 17 18:47:29 localhost kernel: TSC deadline timer available
Aug 17 18:47:29 localhost kernel: smpboot: Allowing 12 CPUs, 0 hotplug CPUs
Aug 17 18:47:29 localhost kernel: PM: hibernation: Registered nosave memory: [mem 0x00000000-0x00000fff]
Aug 17 18:47:29 localhost kernel: PM: hibernation: Registered nosave memory: [mem 0x0009e000-0x0009efff]
Aug 17 18:47:29 localhost kernel: PM: hibernation: Registered nosave memory: [mem 0x0009f000-0x0009ffff]
Aug 17 18:47:29 localhost kernel: PM: hibernation: Registered nosave memory: [mem 0x000a0000-0x000dffff]
Aug 17 18:47:29 localhost kernel: PM: hibernation: Registered nosave memory: [mem 0x000e0000-0x000fffff]
Aug 17 18:47:29 localhost kernel: PM: hibernation: Registered nosave memory: [mem 0xcc7c8000-0xccd6ffff]
Aug 17 18:47:29 localhost kernel: PM: hibernation: Registered nosave memory: [mem 0xccd70000-0xccd7ffff]
Aug 17 18:47:29 localhost kernel: PM: hibernation: Registered nosave memory: [mem 0xccd80000-0xcd183fff]
Aug 17 18:47:29 localhost kernel: PM: hibernation: Registered nosave memory: [mem 0xcd184000-0xcd67afff]
Aug 17 18:47:29 localhost kernel: PM: hibernation: Registered nosave memory: [mem 0xcd67c000-0xcd87efff]
Aug 17 18:47:29 localhost kernel: PM: hibernation: Registered nosave memory: [mem 0xcdca6000-0xcdff3fff]
Aug 17 18:47:29 localhost kernel: PM: hibernation: Registered nosave memory: [mem 0xce000000-0xdfffffff]
Aug 17 18:47:29 localhost kernel: PM: hibernation: Registered nosave memory: [mem 0xe0000000-0xefffffff]
Aug 17 18:47:29 localhost kernel: PM: hibernation: Registered nosave memory: [mem 0xf0000000-0xfed1bfff]
Aug 17 18:47:29 localhost kernel: PM: hibernation: Registered nosave memory: [mem 0xfed1c000-0xfed1ffff]
Aug 17 18:47:29 localhost kernel: PM: hibernation: Registered nosave memory: [mem 0xfed20000-0xfeffffff]
Aug 17 18:47:29 localhost kernel: PM: hibernation: Registered nosave memory: [mem 0xff000000-0xffffffff]
Aug 17 18:47:29 localhost kernel: [mem 0xce000000-0xdfffffff] available for PCI devices
Aug 17 18:47:29 localhost kernel: clocksource: refined-jiffies: mask: 0xffffffff max_cycles: 0xffffffff, max_idle_ns: 1910969940391419 ns
Aug 17 18:47:29 localhost kernel: setup_percpu: NR_CPUS:64 nr_cpumask_bits:64 nr_cpu_ids:12 nr_node_ids:1
Aug 17 18:47:29 localhost kernel: percpu: Embedded 52 pages/cpu s174488 r8192 d30312 u262144
Aug 17 18:47:29 localhost kernel: pcpu-alloc: s174488 r8192 d30312 u262144 alloc=1*2097152
Aug 17 18:47:29 localhost kernel: pcpu-alloc: [0] 00 01 02 03 04 05 06 07 [0] 08 09 10 11 -- -- -- -- 
Aug 17 18:47:29 localhost kernel: Built 1 zonelists, mobility grouping on.  Total pages: 16501708
Aug 17 18:47:29 localhost kernel: Policy zone: Normal
Aug 17 18:47:29 localhost kernel: Kernel command line: BOOT_IMAGE=/vmlinuz-5.15.59-gentoo root=/dev/sda3 ro
Aug 17 18:47:29 localhost kernel: Unknown kernel command line parameters "BOOT_IMAGE=/vmlinuz-5.15.59-gentoo", will be passed to user space.
Aug 17 18:47:29 localhost kernel: Dentry cache hash table entries: 8388608 (order: 14, 67108864 bytes, linear)
Aug 17 18:47:29 localhost kernel: Inode-cache hash table entries: 4194304 (order: 13, 33554432 bytes, linear)
Aug 17 18:47:29 localhost kernel: mem auto-init: stack:off, heap alloc:off, heap free:off
Aug 17 18:47:29 localhost kernel: Memory: 65799552K/67055204K available (18445K kernel code, 2711K rwdata, 5612K rodata, 1500K init, 2528K bss, 1255392K reserved, 0K cma-reserved)
Aug 17 18:47:29 localhost kernel: SLUB: HWalign=64, Order=0-3, MinObjects=0, CPUs=12, Nodes=1
Aug 17 18:47:29 localhost kernel: Kernel/User page tables isolation: enabled
Aug 17 18:47:29 localhost kernel: rcu: Hierarchical RCU implementation.
Aug 17 18:47:29 localhost kernel: rcu: 	RCU event tracing is enabled.
Aug 17 18:47:29 localhost kernel: rcu: 	RCU restricting CPUs from NR_CPUS=64 to nr_cpu_ids=12.
Aug 17 18:47:29 localhost kernel: rcu: RCU calculated value of scheduler-enlistment delay is 100 jiffies.
Aug 17 18:47:29 localhost kernel: rcu: Adjusting geometry for rcu_fanout_leaf=16, nr_cpu_ids=12
Aug 17 18:47:29 localhost kernel: NR_IRQS: 4352, nr_irqs: 928, preallocated irqs: 16
Aug 17 18:47:29 localhost kernel: Console: colour VGA+ 80x25
Aug 17 18:47:29 localhost kernel: printk: console [tty0] enabled
Aug 17 18:47:29 localhost kernel: ACPI: Core revision 20210730
Aug 17 18:47:29 localhost kernel: clocksource: hpet: mask: 0xffffffff max_cycles: 0xffffffff, max_idle_ns: 133484882848 ns
Aug 17 18:47:29 localhost kernel: APIC: Switch to symmetric I/O mode setup
Aug 17 18:47:29 localhost kernel: Switched APIC routing to physical flat.
Aug 17 18:47:29 localhost kernel: ..TIMER: vector=0x30 apic1=0 pin1=2 apic2=-1 pin2=-1
Aug 17 18:47:29 localhost kernel: clocksource: tsc-early: mask: 0xffffffffffffffff max_cycles: 0x2e204cd0862, max_idle_ns: 440795244678 ns
Aug 17 18:47:29 localhost kernel: Calibrating delay loop (skipped), value calculated using timer frequency.. 6400.00 BogoMIPS (lpj=3200003)
Aug 17 18:47:29 localhost kernel: pid_max: default: 32768 minimum: 301
Aug 17 18:47:29 localhost kernel: LSM: Security Framework initializing
Aug 17 18:47:29 localhost kernel: SELinux:  Initializing.
Aug 17 18:47:29 localhost kernel: Mount-cache hash table entries: 131072 (order: 8, 1048576 bytes, linear)
Aug 17 18:47:29 localhost kernel: Mountpoint-cache hash table entries: 131072 (order: 8, 1048576 bytes, linear)
Aug 17 18:47:29 localhost kernel: CPU0: Thermal monitoring enabled (TM1)
Aug 17 18:47:29 localhost kernel: process: using mwait in idle threads
Aug 17 18:47:29 localhost kernel: Last level iTLB entries: 4KB 512, 2MB 8, 4MB 8
Aug 17 18:47:29 localhost kernel: Last level dTLB entries: 4KB 512, 2MB 32, 4MB 32, 1GB 0
Aug 17 18:47:29 localhost kernel: Spectre V1 : Mitigation: usercopy/swapgs barriers and __user pointer sanitization
Aug 17 18:47:29 localhost kernel: Spectre V2 : Mitigation: Retpolines
Aug 17 18:47:29 localhost kernel: Spectre V2 : Spectre v2 / SpectreRSB mitigation: Filling RSB on context switch
Aug 17 18:47:29 localhost kernel: Speculative Store Bypass: Vulnerable
Aug 17 18:47:29 localhost kernel: MDS: Vulnerable: Clear CPU buffers attempted, no microcode
Aug 17 18:47:29 localhost kernel: Freeing SMP alternatives memory: 52K
Aug 17 18:47:29 localhost kernel: smpboot: Estimated ratio of average max frequency by base frequency (times 1024): 1824
Aug 17 18:47:29 localhost kernel: smpboot: CPU0: Intel(R) Core(TM) i7-3930K CPU @ 3.20GHz (family: 0x6, model: 0x2d, stepping: 0x7)
Aug 17 18:47:29 localhost kernel: Performance Events: PEBS fmt1+, SandyBridge events, 16-deep LBR, full-width counters, Intel PMU driver.
Aug 17 18:47:29 localhost kernel: ... version:                3
Aug 17 18:47:29 localhost kernel: ... bit width:              48
Aug 17 18:47:29 localhost kernel: ... generic registers:      4
Aug 17 18:47:29 localhost kernel: ... value mask:             0000ffffffffffff
Aug 17 18:47:29 localhost kernel: ... max period:             00007fffffffffff
Aug 17 18:47:29 localhost kernel: ... fixed-purpose events:   3
Aug 17 18:47:29 localhost kernel: ... event mask:             000000070000000f
Aug 17 18:47:29 localhost kernel: rcu: Hierarchical SRCU implementation.
Aug 17 18:47:29 localhost kernel: smp: Bringing up secondary CPUs ...
Aug 17 18:47:29 localhost kernel: x86: Booting SMP configuration:
Aug 17 18:47:29 localhost kernel: .... node  #0, CPUs:        #1
Aug 17 18:47:29 localhost kernel: TSC synchronization [CPU#0 -> CPU#1]:
Aug 17 18:47:29 localhost kernel: Measured 55521889720246 cycles TSC warp between CPUs, turning off TSC clock.
Aug 17 18:47:29 localhost kernel: tsc: Marking TSC unstable due to check_tsc_sync_source failed
Aug 17 18:47:29 localhost kernel:   #2  #3  #4  #5  #6
Aug 17 18:47:29 localhost kernel: MDS CPU bug present and SMT on, data leak possible. See https://www.kernel.org/doc/html/latest/admin-guide/hw-vuln/mds.html for more details.
Aug 17 18:47:29 localhost kernel:   #7  #8  #9 #10 #11
Aug 17 18:47:29 localhost kernel: smp: Brought up 1 node, 12 CPUs
Aug 17 18:47:29 localhost kernel: smpboot: Max logical packages: 1
Aug 17 18:47:29 localhost kernel: smpboot: Total of 12 processors activated (76800.07 BogoMIPS)
Aug 17 18:47:29 localhost kernel: devtmpfs: initialized
Aug 17 18:47:29 localhost kernel: ACPI: PM: Registering ACPI NVS region [mem 0xccd80000-0xcd183fff] (4210688 bytes)
Aug 17 18:47:29 localhost kernel: ACPI: PM: Registering ACPI NVS region [mem 0xcd67c000-0xcd87efff] (2109440 bytes)
Aug 17 18:47:29 localhost kernel: clocksource: jiffies: mask: 0xffffffff max_cycles: 0xffffffff, max_idle_ns: 1911260446275000 ns
Aug 17 18:47:29 localhost kernel: futex hash table entries: 4096 (order: 6, 262144 bytes, linear)
Aug 17 18:47:29 localhost kernel: PM: RTC time: 18:47:30, date: 2022-08-17
Aug 17 18:47:29 localhost kernel: NET: Registered PF_NETLINK/PF_ROUTE protocol family
Aug 17 18:47:29 localhost kernel: audit: initializing netlink subsys (disabled)
Aug 17 18:47:29 localhost kernel: audit: type=2000 audit(1660762050.033:1): state=initialized audit_enabled=0 res=1
Aug 17 18:47:29 localhost kernel: thermal_sys: Registered thermal governor 'step_wise'
Aug 17 18:47:29 localhost kernel: thermal_sys: Registered thermal governor 'user_space'
Aug 17 18:47:29 localhost kernel: cpuidle: using governor menu
Aug 17 18:47:29 localhost kernel: ACPI: bus type PCI registered
Aug 17 18:47:29 localhost kernel: PCI: MMCONFIG for domain 0000 [bus 00-ff] at [mem 0xe0000000-0xefffffff] (base 0xe0000000)
Aug 17 18:47:29 localhost kernel: PCI: MMCONFIG at [mem 0xe0000000-0xefffffff] reserved in E820
Aug 17 18:47:29 localhost kernel: pmd_set_huge: Cannot satisfy [mem 0xe0000000-0xe0200000] with a huge-page mapping due to MTRR override.
Aug 17 18:47:29 localhost kernel: PCI: Using configuration type 1 for base access
Aug 17 18:47:29 localhost kernel: core: PMU erratum BJ122, BV98, HSD29 worked around, HT is on
Aug 17 18:47:29 localhost kernel: ENERGY_PERF_BIAS: Set to 'normal', was 'performance'
Aug 17 18:47:29 localhost kernel: Kprobes globally optimized
Aug 17 18:47:29 localhost kernel: HugeTLB registered 2.00 MiB page size, pre-allocated 0 pages
Aug 17 18:47:29 localhost kernel: cryptomgr_test (78) used greatest stack depth: 15528 bytes left
Aug 17 18:47:29 localhost kernel: raid6: sse2x4   gen() 14982 MB/s
Aug 17 18:47:29 localhost kernel: raid6: sse2x4   xor()  8227 MB/s
Aug 17 18:47:29 localhost kernel: raid6: sse2x2   gen() 15738 MB/s
Aug 17 18:47:29 localhost kernel: raid6: sse2x2   xor()  8822 MB/s
Aug 17 18:47:29 localhost kernel: raid6: sse2x1   gen() 12524 MB/s
Aug 17 18:47:29 localhost kernel: raid6: sse2x1   xor()  7535 MB/s
Aug 17 18:47:29 localhost kernel: raid6: using algorithm sse2x2 gen() 15738 MB/s
Aug 17 18:47:29 localhost kernel: raid6: .... xor() 8822 MB/s, rmw enabled
Aug 17 18:47:29 localhost kernel: raid6: using ssse3x2 recovery algorithm
Aug 17 18:47:29 localhost kernel: ACPI: Added _OSI(Module Device)
Aug 17 18:47:29 localhost kernel: ACPI: Added _OSI(Processor Device)
Aug 17 18:47:29 localhost kernel: ACPI: Added _OSI(3.0 _SCP Extensions)
Aug 17 18:47:29 localhost kernel: ACPI: Added _OSI(Processor Aggregator Device)
Aug 17 18:47:29 localhost kernel: ACPI: Added _OSI(Linux-Dell-Video)
Aug 17 18:47:29 localhost kernel: ACPI: Added _OSI(Linux-Lenovo-NV-HDMI-Audio)
Aug 17 18:47:29 localhost kernel: ACPI: Added _OSI(Linux-HPI-Hybrid-Graphics)
Aug 17 18:47:29 localhost kernel: ACPI: 2 ACPI AML tables successfully acquired and loaded
Aug 17 18:47:29 localhost kernel: ACPI: Dynamic OEM Table Load:
Aug 17 18:47:29 localhost kernel: ACPI: SSDT 0xFFFF94BE00A24000 000B58 (v01 AMI    IST      00000001 MSFT 03000001)
Aug 17 18:47:29 localhost kernel: ACPI: Dynamic OEM Table Load:
Aug 17 18:47:29 localhost kernel: ACPI: SSDT 0xFFFF94BE00CAF000 000150 (v01 AMI    CST      00000001 MSFT 03000001)
Aug 17 18:47:29 localhost kernel: ACPI: Interpreter enabled
Aug 17 18:47:29 localhost kernel: ACPI: PM: (supports S0 S3 S4 S5)
Aug 17 18:47:29 localhost kernel: ACPI: Using IOAPIC for interrupt routing
Aug 17 18:47:29 localhost kernel: PCI: Using host bridge windows from ACPI; if necessary, use "pci=nocrs" and report a bug
Aug 17 18:47:29 localhost kernel: ACPI: Enabled 7 GPEs in block 00 to 3F
Aug 17 18:47:29 localhost kernel: ACPI: PCI Root Bridge [PCI0] (domain 0000 [bus 00-fe])
Aug 17 18:47:29 localhost kernel: acpi PNP0A08:00: _OSC: OS supports [ExtendedConfig ASPM ClockPM Segments MSI HPX-Type3]
Aug 17 18:47:29 localhost kernel: acpi PNP0A08:00: _OSC: platform does not support [PME LTR]
Aug 17 18:47:29 localhost kernel: acpi PNP0A08:00: _OSC: OS now controls [PCIeCapability]
Aug 17 18:47:29 localhost kernel: PCI host bridge to bus 0000:00
Aug 17 18:47:29 localhost kernel: pci_bus 0000:00: root bus resource [io  0x0000-0x03af window]
Aug 17 18:47:29 localhost kernel: pci_bus 0000:00: root bus resource [io  0x03e0-0x0cf7 window]
Aug 17 18:47:29 localhost kernel: pci_bus 0000:00: root bus resource [io  0x03b0-0x03df window]
Aug 17 18:47:29 localhost kernel: pci_bus 0000:00: root bus resource [io  0x0d00-0xffff window]
Aug 17 18:47:29 localhost kernel: pci_bus 0000:00: root bus resource [mem 0x000a0000-0x000bffff window]
Aug 17 18:47:29 localhost kernel: pci_bus 0000:00: root bus resource [mem 0x000c0000-0x000dffff window]
Aug 17 18:47:29 localhost kernel: pci_bus 0000:00: root bus resource [mem 0xd0000000-0xfbffffff window]
Aug 17 18:47:29 localhost kernel: pci_bus 0000:00: root bus resource [bus 00-fe]
Aug 17 18:47:29 localhost kernel: pci 0000:00:00.0: [8086:3c00] type 00 class 0x060000
Aug 17 18:47:29 localhost kernel: pci 0000:00:00.0: PME# supported from D0 D3hot D3cold
Aug 17 18:47:29 localhost kernel: pci 0000:00:01.0: [8086:3c02] type 01 class 0x060400
Aug 17 18:47:29 localhost kernel: pci 0000:00:01.0: PME# supported from D0 D3hot D3cold
Aug 17 18:47:29 localhost kernel: pci 0000:00:02.0: [8086:3c04] type 01 class 0x060400
Aug 17 18:47:29 localhost kernel: pci 0000:00:02.0: PME# supported from D0 D3hot D3cold
Aug 17 18:47:29 localhost kernel: pci 0000:00:03.0: [8086:3c08] type 01 class 0x060400
Aug 17 18:47:29 localhost kernel: pci 0000:00:03.0: enabling Extended Tags
Aug 17 18:47:29 localhost kernel: pci 0000:00:03.0: PME# supported from D0 D3hot D3cold
Aug 17 18:47:29 localhost kernel: pci 0000:00:05.0: [8086:3c28] type 00 class 0x088000
Aug 17 18:47:29 localhost kernel: pci 0000:00:05.2: [8086:3c2a] type 00 class 0x088000
Aug 17 18:47:29 localhost kernel: pci 0000:00:05.4: [8086:3c2c] type 00 class 0x080020
Aug 17 18:47:29 localhost kernel: pci 0000:00:05.4: reg 0x10: [mem 0xfbf2a000-0xfbf2afff]
Aug 17 18:47:29 localhost kernel: pci 0000:00:11.0: [8086:1d3e] type 01 class 0x060400
Aug 17 18:47:29 localhost kernel: pci 0000:00:11.0: PME# supported from D0 D3hot D3cold
Aug 17 18:47:29 localhost kernel: pci 0000:00:16.0: [8086:1d3a] type 00 class 0x078000
Aug 17 18:47:29 localhost kernel: pci 0000:00:16.0: reg 0x10: [mem 0xfbf29000-0xfbf2900f 64bit]
Aug 17 18:47:29 localhost kernel: pci 0000:00:16.0: PME# supported from D0 D3hot D3cold
Aug 17 18:47:29 localhost kernel: pci 0000:00:19.0: [8086:1503] type 00 class 0x020000
Aug 17 18:47:29 localhost kernel: pci 0000:00:19.0: reg 0x10: [mem 0xfbf00000-0xfbf1ffff]
Aug 17 18:47:29 localhost kernel: pci 0000:00:19.0: reg 0x14: [mem 0xfbf28000-0xfbf28fff]
Aug 17 18:47:29 localhost kernel: pci 0000:00:19.0: reg 0x18: [io  0xf040-0xf05f]
Aug 17 18:47:29 localhost kernel: pci 0000:00:19.0: PME# supported from D0 D3hot D3cold
Aug 17 18:47:29 localhost kernel: pci 0000:00:1a.0: [8086:1d2d] type 00 class 0x0c0320
Aug 17 18:47:29 localhost kernel: pci 0000:00:1a.0: reg 0x10: [mem 0xfbf27000-0xfbf273ff]
Aug 17 18:47:29 localhost kernel: pci 0000:00:1a.0: PME# supported from D0 D3hot D3cold
Aug 17 18:47:29 localhost kernel: pci 0000:00:1b.0: [8086:1d20] type 00 class 0x040300
Aug 17 18:47:29 localhost kernel: pci 0000:00:1b.0: reg 0x10: [mem 0xfbf20000-0xfbf23fff 64bit]
Aug 17 18:47:29 localhost kernel: pci 0000:00:1b.0: PME# supported from D0 D3hot D3cold
Aug 17 18:47:29 localhost kernel: pci 0000:00:1c.0: [8086:1d10] type 01 class 0x060400
Aug 17 18:47:29 localhost kernel: pci 0000:00:1c.0: PME# supported from D0 D3hot D3cold
Aug 17 18:47:29 localhost kernel: pci 0000:00:1c.1: [8086:1d12] type 01 class 0x060400
Aug 17 18:47:29 localhost kernel: pci 0000:00:1c.1: PME# supported from D0 D3hot D3cold
Aug 17 18:47:29 localhost kernel: pci 0000:00:1c.2: [8086:1d14] type 01 class 0x060400
Aug 17 18:47:29 localhost kernel: pci 0000:00:1c.2: PME# supported from D0 D3hot D3cold
Aug 17 18:47:29 localhost kernel: pci 0000:00:1c.3: [8086:1d16] type 01 class 0x060400
Aug 17 18:47:29 localhost kernel: pci 0000:00:1c.3: PME# supported from D0 D3hot D3cold
Aug 17 18:47:29 localhost kernel: pci 0000:00:1c.4: [8086:1d18] type 01 class 0x060400
Aug 17 18:47:29 localhost kernel: pci 0000:00:1c.4: PME# supported from D0 D3hot D3cold
Aug 17 18:47:29 localhost kernel: pci 0000:00:1c.5: [8086:1d1a] type 01 class 0x060400
Aug 17 18:47:29 localhost kernel: pci 0000:00:1c.5: PME# supported from D0 D3hot D3cold
Aug 17 18:47:29 localhost kernel: pci 0000:00:1c.7: [8086:1d1e] type 01 class 0x060400
Aug 17 18:47:29 localhost kernel: pci 0000:00:1c.7: PME# supported from D0 D3hot D3cold
Aug 17 18:47:29 localhost kernel: pci 0000:00:1d.0: [8086:1d26] type 00 class 0x0c0320
Aug 17 18:47:29 localhost kernel: pci 0000:00:1d.0: reg 0x10: [mem 0xfbf26000-0xfbf263ff]
Aug 17 18:47:29 localhost kernel: pci 0000:00:1d.0: PME# supported from D0 D3hot D3cold
Aug 17 18:47:29 localhost kernel: pci 0000:00:1e.0: [8086:244e] type 01 class 0x060401
Aug 17 18:47:29 localhost kernel: pci 0000:00:1f.0: [8086:1d41] type 00 class 0x060100
Aug 17 18:47:29 localhost kernel: pci 0000:00:1f.2: [8086:1d02] type 00 class 0x010601
Aug 17 18:47:29 localhost kernel: pci 0000:00:1f.2: reg 0x10: [io  0xf090-0xf097]
Aug 17 18:47:29 localhost kernel: pci 0000:00:1f.2: reg 0x14: [io  0xf080-0xf083]
Aug 17 18:47:29 localhost kernel: pci 0000:00:1f.2: reg 0x18: [io  0xf070-0xf077]
Aug 17 18:47:29 localhost kernel: pci 0000:00:1f.2: reg 0x1c: [io  0xf060-0xf063]
Aug 17 18:47:29 localhost kernel: pci 0000:00:1f.2: reg 0x20: [io  0xf020-0xf03f]
Aug 17 18:47:29 localhost kernel: pci 0000:00:1f.2: reg 0x24: [mem 0xfbf25000-0xfbf257ff]
Aug 17 18:47:29 localhost kernel: pci 0000:00:1f.2: PME# supported from D3hot
Aug 17 18:47:29 localhost kernel: pci 0000:00:1f.3: [8086:1d22] type 00 class 0x0c0500
Aug 17 18:47:29 localhost kernel: pci 0000:00:1f.3: reg 0x10: [mem 0xfbf24000-0xfbf240ff 64bit]
Aug 17 18:47:29 localhost kernel: pci 0000:00:1f.3: reg 0x20: [io  0xf000-0xf01f]
Aug 17 18:47:29 localhost kernel: pci 0000:02:00.0: [1002:6613] type 00 class 0x030000
Aug 17 18:47:29 localhost kernel: pci 0000:02:00.0: reg 0x10: [mem 0xd0000000-0xdfffffff 64bit pref]
Aug 17 18:47:29 localhost kernel: pci 0000:02:00.0: reg 0x18: [mem 0xfbe00000-0xfbe3ffff 64bit]
Aug 17 18:47:29 localhost kernel: pci 0000:02:00.0: reg 0x20: [io  0xe000-0xe0ff]
Aug 17 18:47:29 localhost kernel: pci 0000:02:00.0: reg 0x30: [mem 0xfbe40000-0xfbe5ffff pref]
Aug 17 18:47:29 localhost kernel: pci 0000:02:00.0: enabling Extended Tags
Aug 17 18:47:29 localhost kernel: pci 0000:02:00.0: Video device with shadowed ROM at [mem 0x000c0000-0x000dffff]
Aug 17 18:47:29 localhost kernel: pci 0000:02:00.0: supports D1 D2
Aug 17 18:47:29 localhost kernel: pci 0000:02:00.0: PME# supported from D1 D2 D3hot
Aug 17 18:47:29 localhost kernel: pci 0000:02:00.1: [1002:aab0] type 00 class 0x040300
Aug 17 18:47:29 localhost kernel: pci 0000:02:00.1: reg 0x10: [mem 0xfbe60000-0xfbe63fff 64bit]
Aug 17 18:47:29 localhost kernel: pci 0000:02:00.1: enabling Extended Tags
Aug 17 18:47:29 localhost kernel: pci 0000:02:00.1: supports D1 D2
Aug 17 18:47:29 localhost kernel: pci 0000:00:01.0: PCI bridge to [bus 02]
Aug 17 18:47:29 localhost kernel: pci 0000:00:01.0:   bridge window [io  0xe000-0xefff]
Aug 17 18:47:29 localhost kernel: pci 0000:00:01.0:   bridge window [mem 0xfbe00000-0xfbefffff]
Aug 17 18:47:29 localhost kernel: pci 0000:00:01.0:   bridge window [mem 0xd0000000-0xdfffffff 64bit pref]
Aug 17 18:47:29 localhost kernel: pci 0000:00:02.0: PCI bridge to [bus 01]
Aug 17 18:47:29 localhost kernel: pci 0000:00:03.0: PCI bridge to [bus 03]
Aug 17 18:47:29 localhost kernel: pci 0000:00:11.0: PCI bridge to [bus 04]
Aug 17 18:47:29 localhost kernel: pci 0000:00:1c.0: PCI bridge to [bus 05]
Aug 17 18:47:29 localhost kernel: pci 0000:06:00.0: [1b21:1042] type 00 class 0x0c0330
Aug 17 18:47:29 localhost kernel: pci 0000:06:00.0: reg 0x10: [mem 0xfbd00000-0xfbd07fff 64bit]
Aug 17 18:47:29 localhost kernel: pci 0000:06:00.0: PME# supported from D3hot D3cold
Aug 17 18:47:29 localhost kernel: pci 0000:00:1c.1: PCI bridge to [bus 06]
Aug 17 18:47:29 localhost kernel: pci 0000:00:1c.1:   bridge window [mem 0xfbd00000-0xfbdfffff]
Aug 17 18:47:29 localhost kernel: pci 0000:07:00.0: [1b21:1042] type 00 class 0x0c0330
Aug 17 18:47:29 localhost kernel: pci 0000:07:00.0: reg 0x10: [mem 0xfbc00000-0xfbc07fff 64bit]
Aug 17 18:47:29 localhost kernel: pci 0000:07:00.0: PME# supported from D3hot D3cold
Aug 17 18:47:29 localhost kernel: pci 0000:00:1c.2: PCI bridge to [bus 07]
Aug 17 18:47:29 localhost kernel: pci 0000:00:1c.2:   bridge window [mem 0xfbc00000-0xfbcfffff]
Aug 17 18:47:29 localhost kernel: pci 0000:08:00.0: [1b21:1042] type 00 class 0x0c0330
Aug 17 18:47:29 localhost kernel: pci 0000:08:00.0: reg 0x10: [mem 0xfbb00000-0xfbb07fff 64bit]
Aug 17 18:47:29 localhost kernel: pci 0000:08:00.0: PME# supported from D3hot D3cold
Aug 17 18:47:29 localhost kernel: pci 0000:00:1c.3: PCI bridge to [bus 08]
Aug 17 18:47:29 localhost kernel: pci 0000:00:1c.3:   bridge window [mem 0xfbb00000-0xfbbfffff]
Aug 17 18:47:29 localhost kernel: pci 0000:09:00.0: [1b21:1042] type 00 class 0x0c0330
Aug 17 18:47:29 localhost kernel: pci 0000:09:00.0: reg 0x10: [mem 0xfba00000-0xfba07fff 64bit]
Aug 17 18:47:29 localhost kernel: pci 0000:09:00.0: PME# supported from D3hot D3cold
Aug 17 18:47:29 localhost kernel: pci 0000:00:1c.4: PCI bridge to [bus 09]
Aug 17 18:47:29 localhost kernel: pci 0000:00:1c.4:   bridge window [mem 0xfba00000-0xfbafffff]
Aug 17 18:47:29 localhost kernel: pci 0000:0a:00.0: [1b21:0612] type 00 class 0x010601
Aug 17 18:47:29 localhost kernel: pci 0000:0a:00.0: reg 0x10: [io  0xd050-0xd057]
Aug 17 18:47:29 localhost kernel: pci 0000:0a:00.0: reg 0x14: [io  0xd040-0xd043]
Aug 17 18:47:29 localhost kernel: pci 0000:0a:00.0: reg 0x18: [io  0xd030-0xd037]
Aug 17 18:47:29 localhost kernel: pci 0000:0a:00.0: reg 0x1c: [io  0xd020-0xd023]
Aug 17 18:47:29 localhost kernel: pci 0000:0a:00.0: reg 0x20: [io  0xd000-0xd01f]
Aug 17 18:47:29 localhost kernel: pci 0000:0a:00.0: reg 0x24: [mem 0xfb900000-0xfb9001ff]
Aug 17 18:47:29 localhost kernel: pci 0000:00:1c.5: PCI bridge to [bus 0a]
Aug 17 18:47:29 localhost kernel: pci 0000:00:1c.5:   bridge window [io  0xd000-0xdfff]
Aug 17 18:47:29 localhost kernel: pci 0000:00:1c.5:   bridge window [mem 0xfb900000-0xfb9fffff]
Aug 17 18:47:29 localhost kernel: pci 0000:0b:00.0: [1b21:0612] type 00 class 0x010601
Aug 17 18:47:29 localhost kernel: pci 0000:0b:00.0: reg 0x10: [io  0xc050-0xc057]
Aug 17 18:47:29 localhost kernel: pci 0000:0b:00.0: reg 0x14: [io  0xc040-0xc043]
Aug 17 18:47:29 localhost kernel: pci 0000:0b:00.0: reg 0x18: [io  0xc030-0xc037]
Aug 17 18:47:29 localhost kernel: pci 0000:0b:00.0: reg 0x1c: [io  0xc020-0xc023]
Aug 17 18:47:29 localhost kernel: pci 0000:0b:00.0: reg 0x20: [io  0xc000-0xc01f]
Aug 17 18:47:29 localhost kernel: pci 0000:0b:00.0: reg 0x24: [mem 0xfb800000-0xfb8001ff]
Aug 17 18:47:29 localhost kernel: pci 0000:00:1c.7: PCI bridge to [bus 0b]
Aug 17 18:47:29 localhost kernel: pci 0000:00:1c.7:   bridge window [io  0xc000-0xcfff]
Aug 17 18:47:29 localhost kernel: pci 0000:00:1c.7:   bridge window [mem 0xfb800000-0xfb8fffff]
Aug 17 18:47:29 localhost kernel: pci_bus 0000:0c: extended config space not accessible
Aug 17 18:47:29 localhost kernel: pci 0000:00:1e.0: PCI bridge to [bus 0c] (subtractive decode)
Aug 17 18:47:29 localhost kernel: pci 0000:00:1e.0:   bridge window [io  0x0000-0x03af window] (subtractive decode)
Aug 17 18:47:29 localhost kernel: pci 0000:00:1e.0:   bridge window [io  0x03e0-0x0cf7 window] (subtractive decode)
Aug 17 18:47:29 localhost kernel: pci 0000:00:1e.0:   bridge window [io  0x03b0-0x03df window] (subtractive decode)
Aug 17 18:47:29 localhost kernel: pci 0000:00:1e.0:   bridge window [io  0x0d00-0xffff window] (subtractive decode)
Aug 17 18:47:29 localhost kernel: pci 0000:00:1e.0:   bridge window [mem 0x000a0000-0x000bffff window] (subtractive decode)
Aug 17 18:47:29 localhost kernel: pci 0000:00:1e.0:   bridge window [mem 0x000c0000-0x000dffff window] (subtractive decode)
Aug 17 18:47:29 localhost kernel: pci 0000:00:1e.0:   bridge window [mem 0xd0000000-0xfbffffff window] (subtractive decode)
Aug 17 18:47:29 localhost kernel: ACPI: PCI Root Bridge [UNC0] (domain 0000 [bus ff])
Aug 17 18:47:29 localhost kernel: acpi PNP0A03:00: _OSC: OS supports [ExtendedConfig ASPM ClockPM Segments MSI HPX-Type3]
Aug 17 18:47:29 localhost kernel: PCI host bridge to bus 0000:ff
Aug 17 18:47:29 localhost kernel: pci_bus 0000:ff: root bus resource [bus ff]
Aug 17 18:47:29 localhost kernel: pci 0000:ff:08.0: [8086:3c80] type 00 class 0x088000
Aug 17 18:47:29 localhost kernel: pci 0000:ff:08.3: [8086:3c83] type 00 class 0x088000
Aug 17 18:47:29 localhost kernel: pci 0000:ff:08.4: [8086:3c84] type 00 class 0x088000
Aug 17 18:47:29 localhost kernel: pci 0000:ff:09.0: [8086:3c90] type 00 class 0x088000
Aug 17 18:47:29 localhost kernel: pci 0000:ff:09.3: [8086:3c93] type 00 class 0x088000
Aug 17 18:47:29 localhost kernel: pci 0000:ff:09.4: [8086:3c94] type 00 class 0x088000
Aug 17 18:47:29 localhost kernel: pci 0000:ff:0a.0: [8086:3cc0] type 00 class 0x088000
Aug 17 18:47:29 localhost kernel: pci 0000:ff:0a.1: [8086:3cc1] type 00 class 0x088000
Aug 17 18:47:29 localhost kernel: pci 0000:ff:0a.2: [8086:3cc2] type 00 class 0x088000
Aug 17 18:47:29 localhost kernel: pci 0000:ff:0a.3: [8086:3cd0] type 00 class 0x088000
Aug 17 18:47:29 localhost kernel: pci 0000:ff:0b.0: [8086:3ce0] type 00 class 0x088000
Aug 17 18:47:29 localhost kernel: pci 0000:ff:0b.3: [8086:3ce3] type 00 class 0x088000
Aug 17 18:47:29 localhost kernel: pci 0000:ff:0c.0: [8086:3ce8] type 00 class 0x088000
Aug 17 18:47:29 localhost kernel: pci 0000:ff:0c.1: [8086:3ce8] type 00 class 0x088000
Aug 17 18:47:29 localhost kernel: pci 0000:ff:0c.2: [8086:3ce8] type 00 class 0x088000
Aug 17 18:47:29 localhost kernel: pci 0000:ff:0c.6: [8086:3cf4] type 00 class 0x088000
Aug 17 18:47:29 localhost kernel: pci 0000:ff:0c.7: [8086:3cf6] type 00 class 0x088000
Aug 17 18:47:29 localhost kernel: pci 0000:ff:0d.0: [8086:3ce8] type 00 class 0x088000
Aug 17 18:47:29 localhost kernel: pci 0000:ff:0d.1: [8086:3ce8] type 00 class 0x088000
Aug 17 18:47:29 localhost kernel: pci 0000:ff:0d.2: [8086:3ce8] type 00 class 0x088000
Aug 17 18:47:29 localhost kernel: pci 0000:ff:0d.6: [8086:3cf5] type 00 class 0x088000
Aug 17 18:47:29 localhost kernel: pci 0000:ff:0e.0: [8086:3ca0] type 00 class 0x088000
Aug 17 18:47:29 localhost kernel: pci 0000:ff:0e.1: [8086:3c46] type 00 class 0x110100
Aug 17 18:47:29 localhost kernel: pci 0000:ff:0f.0: [8086:3ca8] type 00 class 0x088000
Aug 17 18:47:29 localhost kernel: pci 0000:ff:0f.1: [8086:3c71] type 00 class 0x088000
Aug 17 18:47:29 localhost kernel: pci 0000:ff:0f.2: [8086:3caa] type 00 class 0x088000
Aug 17 18:47:29 localhost kernel: pci 0000:ff:0f.3: [8086:3cab] type 00 class 0x088000
Aug 17 18:47:29 localhost kernel: pci 0000:ff:0f.4: [8086:3cac] type 00 class 0x088000
Aug 17 18:47:29 localhost kernel: pci 0000:ff:0f.5: [8086:3cad] type 00 class 0x088000
Aug 17 18:47:29 localhost kernel: pci 0000:ff:0f.6: [8086:3cae] type 00 class 0x088000
Aug 17 18:47:29 localhost kernel: pci 0000:ff:10.0: [8086:3cb0] type 00 class 0x088000
Aug 17 18:47:29 localhost kernel: pci 0000:ff:10.1: [8086:3cb1] type 00 class 0x088000
Aug 17 18:47:29 localhost kernel: pci 0000:ff:10.2: [8086:3cb2] type 00 class 0x088000
Aug 17 18:47:29 localhost kernel: pci 0000:ff:10.3: [8086:3cb3] type 00 class 0x088000
Aug 17 18:47:29 localhost kernel: pci 0000:ff:10.4: [8086:3cb4] type 00 class 0x088000
Aug 17 18:47:29 localhost kernel: pci 0000:ff:10.5: [8086:3cb5] type 00 class 0x088000
Aug 17 18:47:29 localhost kernel: pci 0000:ff:10.6: [8086:3cb6] type 00 class 0x088000
Aug 17 18:47:29 localhost kernel: pci 0000:ff:10.7: [8086:3cb7] type 00 class 0x088000
Aug 17 18:47:29 localhost kernel: pci 0000:ff:11.0: [8086:3cb8] type 00 class 0x088000
Aug 17 18:47:29 localhost kernel: pci 0000:ff:13.0: [8086:3ce4] type 00 class 0x088000
Aug 17 18:47:29 localhost kernel: pci 0000:ff:13.1: [8086:3c43] type 00 class 0x110100
Aug 17 18:47:29 localhost kernel: pci 0000:ff:13.4: [8086:3ce6] type 00 class 0x110100
Aug 17 18:47:29 localhost kernel: pci 0000:ff:13.5: [8086:3c44] type 00 class 0x110100
Aug 17 18:47:29 localhost kernel: pci 0000:ff:13.6: [8086:3c45] type 00 class 0x088000
Aug 17 18:47:29 localhost kernel: ACPI: PCI: Interrupt link LNKA configured for IRQ 11
Aug 17 18:47:29 localhost kernel: ACPI: PCI: Interrupt link LNKB configured for IRQ 10
Aug 17 18:47:29 localhost kernel: ACPI: PCI: Interrupt link LNKC configured for IRQ 15
Aug 17 18:47:29 localhost kernel: ACPI: PCI: Interrupt link LNKD configured for IRQ 4
Aug 17 18:47:29 localhost kernel: ACPI: PCI: Interrupt link LNKE configured for IRQ 14
Aug 17 18:47:29 localhost kernel: ACPI: PCI: Interrupt link LNKF configured for IRQ 5
Aug 17 18:47:29 localhost kernel: ACPI: PCI: Interrupt link LNKG configured for IRQ 3
Aug 17 18:47:29 localhost kernel: ACPI: PCI: Interrupt link LNKH configured for IRQ 7
Aug 17 18:47:29 localhost kernel: iommu: Default domain type: Translated 
Aug 17 18:47:29 localhost kernel: iommu: DMA domain TLB invalidation policy: lazy mode 
Aug 17 18:47:29 localhost kernel: pci 0000:02:00.0: vgaarb: setting as boot VGA device
Aug 17 18:47:29 localhost kernel: pci 0000:02:00.0: vgaarb: VGA device added: decodes=io+mem,owns=io+mem,locks=none
Aug 17 18:47:29 localhost kernel: pci 0000:02:00.0: vgaarb: bridge control possible
Aug 17 18:47:29 localhost kernel: vgaarb: loaded
Aug 17 18:47:29 localhost kernel: SCSI subsystem initialized
Aug 17 18:47:29 localhost kernel: libata version 3.00 loaded.
Aug 17 18:47:29 localhost kernel: ACPI: bus type USB registered
Aug 17 18:47:29 localhost kernel: usbcore: registered new interface driver usbfs
Aug 17 18:47:29 localhost kernel: usbcore: registered new interface driver hub
Aug 17 18:47:29 localhost kernel: usbcore: registered new device driver usb
Aug 17 18:47:29 localhost kernel: pps_core: LinuxPPS API ver. 1 registered
Aug 17 18:47:29 localhost kernel: pps_core: Software ver. 5.3.6 - Copyright 2005-2007 Rodolfo Giometti <giometti@linux.it>
Aug 17 18:47:29 localhost kernel: PTP clock support registered
Aug 17 18:47:29 localhost kernel: Advanced Linux Sound Architecture Driver Initialized.
Aug 17 18:47:29 localhost kernel: NetLabel: Initializing
Aug 17 18:47:29 localhost kernel: NetLabel:  domain hash size = 128
Aug 17 18:47:29 localhost kernel: NetLabel:  protocols = UNLABELED CIPSOv4 CALIPSO
Aug 17 18:47:29 localhost kernel: NetLabel:  unlabeled traffic allowed by default
Aug 17 18:47:29 localhost kernel: PCI: Using ACPI for IRQ routing
Aug 17 18:47:29 localhost kernel: PCI: pci_cache_line_size set to 64 bytes
Aug 17 18:47:29 localhost kernel: e820: reserve RAM buffer [mem 0x0009e800-0x0009ffff]
Aug 17 18:47:29 localhost kernel: e820: reserve RAM buffer [mem 0xcc7c8000-0xcfffffff]
Aug 17 18:47:29 localhost kernel: e820: reserve RAM buffer [mem 0xcd67c000-0xcfffffff]
Aug 17 18:47:29 localhost kernel: e820: reserve RAM buffer [mem 0xcdca6000-0xcfffffff]
Aug 17 18:47:29 localhost kernel: e820: reserve RAM buffer [mem 0xce000000-0xcfffffff]
Aug 17 18:47:29 localhost kernel: hpet0: at MMIO 0xfed00000, IRQs 2, 8, 0, 0, 0, 0, 0, 0
Aug 17 18:47:29 localhost kernel: hpet0: 8 comparators, 64-bit 14.318180 MHz counter
Aug 17 18:47:29 localhost kernel: clocksource: Switched to clocksource hpet
Aug 17 18:47:29 localhost kernel: VFS: Disk quotas dquot_6.6.0
Aug 17 18:47:29 localhost kernel: VFS: Dquot-cache hash table entries: 512 (order 0, 4096 bytes)
Aug 17 18:47:29 localhost kernel: pnp: PnP ACPI init
Aug 17 18:47:29 localhost kernel: system 00:00: [mem 0xfc000000-0xfcffffff] has been reserved
Aug 17 18:47:29 localhost kernel: system 00:00: [mem 0xfd000000-0xfdffffff] has been reserved
Aug 17 18:47:29 localhost kernel: system 00:00: [mem 0xfe000000-0xfeafffff] has been reserved
Aug 17 18:47:29 localhost kernel: system 00:00: [mem 0xfbfff000-0xfbffffff] has been reserved
Aug 17 18:47:29 localhost kernel: system 00:00: [mem 0xfeb00000-0xfebfffff] has been reserved
Aug 17 18:47:29 localhost kernel: system 00:00: [mem 0xfed00400-0xfed3ffff] could not be reserved
Aug 17 18:47:29 localhost kernel: system 00:00: [mem 0xfed45000-0xfedfffff] has been reserved
Aug 17 18:47:29 localhost kernel: system 00:01: [io  0x0290-0x029f] has been reserved
Aug 17 18:47:29 localhost kernel: system 00:03: [io  0x04d0-0x04d1] has been reserved
Aug 17 18:47:29 localhost kernel: system 00:04: [io  0x0400-0x0453] has been reserved
Aug 17 18:47:29 localhost kernel: system 00:04: [io  0x0458-0x047f] has been reserved
Aug 17 18:47:29 localhost kernel: system 00:04: [io  0x1180-0x119f] has been reserved
Aug 17 18:47:29 localhost kernel: system 00:04: [io  0x0500-0x057f] has been reserved
Aug 17 18:47:29 localhost kernel: system 00:04: [mem 0xfed1c000-0xfed1ffff] has been reserved
Aug 17 18:47:29 localhost kernel: system 00:04: [mem 0xfec00000-0xfecfffff] could not be reserved
Aug 17 18:47:29 localhost kernel: system 00:04: [mem 0xfed08000-0xfed08fff] has been reserved
Aug 17 18:47:29 localhost kernel: system 00:04: [mem 0xff000000-0xffffffff] has been reserved
Aug 17 18:47:29 localhost kernel: system 00:05: [io  0x0454-0x0457] has been reserved
Aug 17 18:47:29 localhost kernel: pnp: PnP ACPI: found 6 devices
Aug 17 18:47:29 localhost kernel: clocksource: acpi_pm: mask: 0xffffff max_cycles: 0xffffff, max_idle_ns: 2085701024 ns
Aug 17 18:47:29 localhost kernel: NET: Registered PF_INET protocol family
Aug 17 18:47:29 localhost kernel: IP idents hash table entries: 262144 (order: 9, 2097152 bytes, linear)
Aug 17 18:47:29 localhost kernel: tcp_listen_portaddr_hash hash table entries: 32768 (order: 7, 524288 bytes, linear)
Aug 17 18:47:29 localhost kernel: Table-perturb hash table entries: 65536 (order: 6, 262144 bytes, linear)
Aug 17 18:47:29 localhost kernel: TCP established hash table entries: 524288 (order: 10, 4194304 bytes, linear)
Aug 17 18:47:29 localhost kernel: TCP bind hash table entries: 65536 (order: 8, 1048576 bytes, linear)
Aug 17 18:47:29 localhost kernel: TCP: Hash tables configured (established 524288 bind 65536)
Aug 17 18:47:29 localhost kernel: UDP hash table entries: 32768 (order: 8, 1048576 bytes, linear)
Aug 17 18:47:29 localhost kernel: UDP-Lite hash table entries: 32768 (order: 8, 1048576 bytes, linear)
Aug 17 18:47:29 localhost kernel: NET: Registered PF_UNIX/PF_LOCAL protocol family
Aug 17 18:47:29 localhost kernel: RPC: Registered named UNIX socket transport module.
Aug 17 18:47:29 localhost kernel: RPC: Registered udp transport module.
Aug 17 18:47:29 localhost kernel: RPC: Registered tcp transport module.
Aug 17 18:47:29 localhost kernel: RPC: Registered tcp NFSv4.1 backchannel transport module.
Aug 17 18:47:29 localhost kernel: pci 0000:00:01.0: PCI bridge to [bus 02]
Aug 17 18:47:29 localhost kernel: pci 0000:00:01.0:   bridge window [io  0xe000-0xefff]
Aug 17 18:47:29 localhost kernel: pci 0000:00:01.0:   bridge window [mem 0xfbe00000-0xfbefffff]
Aug 17 18:47:29 localhost kernel: pci 0000:00:01.0:   bridge window [mem 0xd0000000-0xdfffffff 64bit pref]
Aug 17 18:47:29 localhost kernel: pci 0000:00:02.0: PCI bridge to [bus 01]
Aug 17 18:47:29 localhost kernel: pci 0000:00:03.0: PCI bridge to [bus 03]
Aug 17 18:47:29 localhost kernel: pci 0000:00:11.0: PCI bridge to [bus 04]
Aug 17 18:47:29 localhost kernel: pci 0000:00:1c.0: PCI bridge to [bus 05]
Aug 17 18:47:29 localhost kernel: pci 0000:00:1c.1: PCI bridge to [bus 06]
Aug 17 18:47:29 localhost kernel: pci 0000:00:1c.1:   bridge window [mem 0xfbd00000-0xfbdfffff]
Aug 17 18:47:29 localhost kernel: pci 0000:00:1c.2: PCI bridge to [bus 07]
Aug 17 18:47:29 localhost kernel: pci 0000:00:1c.2:   bridge window [mem 0xfbc00000-0xfbcfffff]
Aug 17 18:47:29 localhost kernel: pci 0000:00:1c.3: PCI bridge to [bus 08]
Aug 17 18:47:29 localhost kernel: pci 0000:00:1c.3:   bridge window [mem 0xfbb00000-0xfbbfffff]
Aug 17 18:47:29 localhost kernel: pci 0000:00:1c.4: PCI bridge to [bus 09]
Aug 17 18:47:29 localhost kernel: pci 0000:00:1c.4:   bridge window [mem 0xfba00000-0xfbafffff]
Aug 17 18:47:29 localhost kernel: pci 0000:00:1c.5: PCI bridge to [bus 0a]
Aug 17 18:47:29 localhost kernel: pci 0000:00:1c.5:   bridge window [io  0xd000-0xdfff]
Aug 17 18:47:29 localhost kernel: pci 0000:00:1c.5:   bridge window [mem 0xfb900000-0xfb9fffff]
Aug 17 18:47:29 localhost kernel: pci 0000:00:1c.7: PCI bridge to [bus 0b]
Aug 17 18:47:29 localhost kernel: pci 0000:00:1c.7:   bridge window [io  0xc000-0xcfff]
Aug 17 18:47:29 localhost kernel: pci 0000:00:1c.7:   bridge window [mem 0xfb800000-0xfb8fffff]
Aug 17 18:47:29 localhost kernel: pci 0000:00:1e.0: PCI bridge to [bus 0c]
Aug 17 18:47:29 localhost kernel: pci_bus 0000:00: resource 4 [io  0x0000-0x03af window]
Aug 17 18:47:29 localhost kernel: pci_bus 0000:00: resource 5 [io  0x03e0-0x0cf7 window]
Aug 17 18:47:29 localhost kernel: pci_bus 0000:00: resource 6 [io  0x03b0-0x03df window]
Aug 17 18:47:29 localhost kernel: pci_bus 0000:00: resource 7 [io  0x0d00-0xffff window]
Aug 17 18:47:29 localhost kernel: pci_bus 0000:00: resource 8 [mem 0x000a0000-0x000bffff window]
Aug 17 18:47:29 localhost kernel: pci_bus 0000:00: resource 9 [mem 0x000c0000-0x000dffff window]
Aug 17 18:47:29 localhost kernel: pci_bus 0000:00: resource 10 [mem 0xd0000000-0xfbffffff window]
Aug 17 18:47:29 localhost kernel: pci_bus 0000:02: resource 0 [io  0xe000-0xefff]
Aug 17 18:47:29 localhost kernel: pci_bus 0000:02: resource 1 [mem 0xfbe00000-0xfbefffff]
Aug 17 18:47:29 localhost kernel: pci_bus 0000:02: resource 2 [mem 0xd0000000-0xdfffffff 64bit pref]
Aug 17 18:47:29 localhost kernel: pci_bus 0000:06: resource 1 [mem 0xfbd00000-0xfbdfffff]
Aug 17 18:47:29 localhost kernel: pci_bus 0000:07: resource 1 [mem 0xfbc00000-0xfbcfffff]
Aug 17 18:47:29 localhost kernel: pci_bus 0000:08: resource 1 [mem 0xfbb00000-0xfbbfffff]
Aug 17 18:47:29 localhost kernel: pci_bus 0000:09: resource 1 [mem 0xfba00000-0xfbafffff]
Aug 17 18:47:29 localhost kernel: pci_bus 0000:0a: resource 0 [io  0xd000-0xdfff]
Aug 17 18:47:29 localhost kernel: pci_bus 0000:0a: resource 1 [mem 0xfb900000-0xfb9fffff]
Aug 17 18:47:29 localhost kernel: pci_bus 0000:0b: resource 0 [io  0xc000-0xcfff]
Aug 17 18:47:29 localhost kernel: pci_bus 0000:0b: resource 1 [mem 0xfb800000-0xfb8fffff]
Aug 17 18:47:29 localhost kernel: pci_bus 0000:0c: resource 4 [io  0x0000-0x03af window]
Aug 17 18:47:29 localhost kernel: pci_bus 0000:0c: resource 5 [io  0x03e0-0x0cf7 window]
Aug 17 18:47:29 localhost kernel: pci_bus 0000:0c: resource 6 [io  0x03b0-0x03df window]
Aug 17 18:47:29 localhost kernel: pci_bus 0000:0c: resource 7 [io  0x0d00-0xffff window]
Aug 17 18:47:29 localhost kernel: pci_bus 0000:0c: resource 8 [mem 0x000a0000-0x000bffff window]
Aug 17 18:47:29 localhost kernel: pci_bus 0000:0c: resource 9 [mem 0x000c0000-0x000dffff window]
Aug 17 18:47:29 localhost kernel: pci_bus 0000:0c: resource 10 [mem 0xd0000000-0xfbffffff window]
Aug 17 18:47:29 localhost kernel: pci 0000:00:05.0: disabled boot interrupts on device [8086:3c28]
Aug 17 18:47:29 localhost kernel: pci 0000:00:1a.0: quirk_usb_early_handoff+0x0/0x700 took 15983 usecs
Aug 17 18:47:29 localhost kernel: pci 0000:00:1d.0: quirk_usb_early_handoff+0x0/0x700 took 15516 usecs
Aug 17 18:47:29 localhost kernel: pci 0000:02:00.1: D0 power state depends on 0000:02:00.0
Aug 17 18:47:29 localhost kernel: PCI: CLS 64 bytes, default 64
Aug 17 18:47:29 localhost kernel: PCI-DMA: Using software bounce buffering for IO (SWIOTLB)
Aug 17 18:47:29 localhost kernel: software IO TLB: mapped [mem 0x00000000c87c8000-0x00000000cc7c8000] (64MB)
Aug 17 18:47:29 localhost kernel: RAPL PMU: API unit is 2^-32 Joules, 2 fixed counters, 163840 ms ovfl timer
Aug 17 18:47:29 localhost kernel: RAPL PMU: hw unit of domain pp0-core 2^-16 Joules
Aug 17 18:47:29 localhost kernel: RAPL PMU: hw unit of domain package 2^-16 Joules
Aug 17 18:47:29 localhost kernel: Initialise system trusted keyrings
Aug 17 18:47:29 localhost kernel: workingset: timestamp_bits=56 max_order=24 bucket_order=0
Aug 17 18:47:29 localhost kernel: NFS: Registering the id_resolver key type
Aug 17 18:47:29 localhost kernel: Key type id_resolver registered
Aug 17 18:47:29 localhost kernel: Key type id_legacy registered
Aug 17 18:47:29 localhost kernel: utf8_selftest: All 154 tests passed
Aug 17 18:47:29 localhost kernel: ntfs: driver 2.1.32 [Flags: R/W DEBUG].
Aug 17 18:47:29 localhost kernel: ntfs3: Max link count 4000
Aug 17 18:47:29 localhost kernel: ntfs3: Enabled Linux POSIX ACLs support
Aug 17 18:47:29 localhost kernel: ntfs3: Warning: Activated 64 bits per cluster. Windows does not support this
Aug 17 18:47:29 localhost kernel: ntfs3: Read-only LZX/Xpress compression included
Aug 17 18:47:29 localhost kernel: JFS: nTxBlock = 8192, nTxLock = 65536
Aug 17 18:47:29 localhost kernel: xor: automatically using best checksumming function   avx       
Aug 17 18:47:29 localhost kernel: Key type asymmetric registered
Aug 17 18:47:29 localhost kernel: Asymmetric key parser 'x509' registered
Aug 17 18:47:29 localhost kernel: Block layer SCSI generic (bsg) driver version 0.4 loaded (major 251)
Aug 17 18:47:29 localhost kernel: io scheduler mq-deadline registered
Aug 17 18:47:29 localhost kernel: io scheduler kyber registered
Aug 17 18:47:29 localhost kernel: input: Power Button as /devices/LNXSYSTM:00/LNXSYBUS:00/PNP0C0C:00/input/input0
Aug 17 18:47:29 localhost kernel: ACPI: button: Power Button [PWRB]
Aug 17 18:47:29 localhost kernel: input: Power Button as /devices/LNXSYSTM:00/LNXPWRBN:00/input/input1
Aug 17 18:47:29 localhost kernel: ACPI: button: Power Button [PWRF]
Aug 17 18:47:29 localhost kernel: Monitor-Mwait will be used to enter C-1 state
Aug 17 18:47:29 localhost kernel: ACPI: \_SB_.P000: Found 1 idle states
Aug 17 18:47:29 localhost kernel: ACPI: \_SB_.P002: Found 1 idle states
Aug 17 18:47:29 localhost kernel: ACPI: \_SB_.P004: Found 1 idle states
Aug 17 18:47:29 localhost kernel: ACPI: \_SB_.P006: Found 1 idle states
Aug 17 18:47:29 localhost kernel: ACPI: \_SB_.P008: Found 1 idle states
Aug 17 18:47:29 localhost kernel: ACPI: \_SB_.P00A: Found 1 idle states
Aug 17 18:47:29 localhost kernel: ACPI: \_SB_.P001: Found 1 idle states
Aug 17 18:47:29 localhost kernel: ACPI: \_SB_.P003: Found 1 idle states
Aug 17 18:47:29 localhost kernel: ACPI: \_SB_.P005: Found 1 idle states
Aug 17 18:47:29 localhost kernel: ACPI: \_SB_.P007: Found 1 idle states
Aug 17 18:47:29 localhost kernel: ACPI: \_SB_.P009: Found 1 idle states
Aug 17 18:47:29 localhost kernel: ACPI: \_SB_.P00B: Found 1 idle states
Aug 17 18:47:29 localhost kernel: Serial: 8250/16550 driver, 4 ports, IRQ sharing enabled
Aug 17 18:47:29 localhost kernel: Non-volatile memory driver v1.3
Aug 17 18:47:29 localhost kernel: Linux agpgart interface v0.103
Aug 17 18:47:29 localhost kernel: [drm] radeon kernel modesetting enabled.
Aug 17 18:47:29 localhost kernel: radeon 0000:02:00.0: vgaarb: deactivate vga console
Aug 17 18:47:29 localhost kernel: Console: switching to colour dummy device 80x25
Aug 17 18:47:29 localhost kernel: [drm] initializing kernel modesetting (OLAND 0x1002:0x6613 0x1043:0x04C5 0x87).
Aug 17 18:47:29 localhost kernel: radeon 0000:02:00.0: No more image in the PCI ROM
Aug 17 18:47:29 localhost kernel: ATOM BIOS: 6613HB.15.49.0.17.AS04
Aug 17 18:47:29 localhost kernel: radeon 0000:02:00.0: VRAM: 2048M 0x0000000000000000 - 0x000000007FFFFFFF (2048M used)
Aug 17 18:47:29 localhost kernel: radeon 0000:02:00.0: GTT: 2048M 0x0000000080000000 - 0x00000000FFFFFFFF
Aug 17 18:47:29 localhost kernel: [drm] Detected VRAM RAM=2048M, BAR=256M
Aug 17 18:47:29 localhost kernel: [drm] RAM width 128bits DDR
Aug 17 18:47:29 localhost kernel: [drm] radeon: 2048M of VRAM memory ready
Aug 17 18:47:29 localhost kernel: [drm] radeon: 2048M of GTT memory ready.
Aug 17 18:47:29 localhost kernel: [drm] Loading oland Microcode
Aug 17 18:47:29 localhost kernel: Loading firmware: radeon/oland_pfp.bin
Aug 17 18:47:29 localhost kernel: radeon 0000:02:00.0: Direct firmware load for radeon/oland_pfp.bin failed with error -2
Aug 17 18:47:29 localhost kernel: Loading firmware: radeon/OLAND_pfp.bin
Aug 17 18:47:29 localhost kernel: radeon 0000:02:00.0: Direct firmware load for radeon/OLAND_pfp.bin failed with error -2
Aug 17 18:47:29 localhost kernel: si_cp: Failed to load firmware "radeon/OLAND_pfp.bin"
Aug 17 18:47:29 localhost kernel: [drm:si_init.cold] *ERROR* Failed to load firmware!
Aug 17 18:47:29 localhost kernel: radeon 0000:02:00.0: Fatal error during GPU init
Aug 17 18:47:29 localhost kernel: [drm] radeon: finishing device.
Aug 17 18:47:29 localhost kernel: [drm] radeon: ttm finalized
Aug 17 18:47:29 localhost kernel: radeon: probe of 0000:02:00.0 failed with error -2
Aug 17 18:47:29 localhost kernel: loop: module loaded
Aug 17 18:47:29 localhost kernel: ahci 0000:00:1f.2: version 3.0
Aug 17 18:47:29 localhost kernel: ahci 0000:00:1f.2: AHCI 0001.0300 32 slots 6 ports 6 Gbps 0x3 impl SATA mode
Aug 17 18:47:29 localhost kernel: ahci 0000:00:1f.2: flags: 64bit ncq sntf pm led clo pio slum part ems apst 
Aug 17 18:47:29 localhost kernel: scsi host0: ahci
Aug 17 18:47:29 localhost kernel: scsi host1: ahci
Aug 17 18:47:29 localhost kernel: scsi host2: ahci
Aug 17 18:47:29 localhost kernel: scsi host3: ahci
Aug 17 18:47:29 localhost kernel: scsi host4: ahci
Aug 17 18:47:29 localhost kernel: scsi host5: ahci
Aug 17 18:47:29 localhost kernel: ata1: SATA max UDMA/133 abar m2048@0xfbf25000 port 0xfbf25100 irq 30
Aug 17 18:47:29 localhost kernel: ata2: SATA max UDMA/133 abar m2048@0xfbf25000 port 0xfbf25180 irq 30
Aug 17 18:47:29 localhost kernel: ata3: DUMMY
Aug 17 18:47:29 localhost kernel: ata4: DUMMY
Aug 17 18:47:29 localhost kernel: ata5: DUMMY
Aug 17 18:47:29 localhost kernel: ata6: DUMMY
Aug 17 18:47:29 localhost kernel: ahci 0000:0a:00.0: SSS flag set, parallel bus scan disabled
Aug 17 18:47:29 localhost kernel: ahci 0000:0a:00.0: AHCI 0001.0200 32 slots 2 ports 6 Gbps 0x3 impl SATA mode
Aug 17 18:47:29 localhost kernel: ahci 0000:0a:00.0: flags: 64bit ncq sntf stag led clo pmp pio slum part ccc sxs 
Aug 17 18:47:29 localhost kernel: scsi host6: ahci
Aug 17 18:47:29 localhost kernel: scsi host7: ahci
Aug 17 18:47:29 localhost kernel: ata7: SATA max UDMA/133 abar m512@0xfb900000 port 0xfb900100 irq 31
Aug 17 18:47:29 localhost kernel: ata8: SATA max UDMA/133 abar m512@0xfb900000 port 0xfb900180 irq 31
Aug 17 18:47:29 localhost kernel: ahci 0000:0b:00.0: SSS flag set, parallel bus scan disabled
Aug 17 18:47:29 localhost kernel: ahci 0000:0b:00.0: AHCI 0001.0200 32 slots 2 ports 6 Gbps 0x3 impl SATA mode
Aug 17 18:47:29 localhost kernel: ahci 0000:0b:00.0: flags: 64bit ncq sntf stag led clo pmp pio slum part ccc sxs 
Aug 17 18:47:29 localhost kernel: scsi host8: ahci
Aug 17 18:47:29 localhost kernel: scsi host9: ahci
Aug 17 18:47:29 localhost kernel: ata9: SATA max UDMA/133 abar m512@0xfb800000 port 0xfb800100 irq 32
Aug 17 18:47:29 localhost kernel: ata10: SATA max UDMA/133 abar m512@0xfb800000 port 0xfb800180 irq 32
Aug 17 18:47:29 localhost kernel: e100: Intel(R) PRO/100 Network Driver
Aug 17 18:47:29 localhost kernel: e100: Copyright(c) 1999-2006 Intel Corporation
Aug 17 18:47:29 localhost kernel: e1000: Intel(R) PRO/1000 Network Driver
Aug 17 18:47:29 localhost kernel: e1000: Copyright (c) 1999-2006 Intel Corporation.
Aug 17 18:47:29 localhost kernel: e1000e: Intel(R) PRO/1000 Network Driver
Aug 17 18:47:29 localhost kernel: e1000e: Copyright(c) 1999 - 2015 Intel Corporation.
Aug 17 18:47:29 localhost kernel: e1000e 0000:00:19.0: Interrupt Throttling Rate (ints/sec) set to dynamic conservative mode
Aug 17 18:47:29 localhost kernel: e1000e 0000:00:19.0 0000:00:19.0 (uninitialized): registered PHC clock
Aug 17 18:47:29 localhost kernel: e1000e 0000:00:19.0 eth0: (PCI Express:2.5GT/s:Width x1) 88:88:88:88:87:88
Aug 17 18:47:29 localhost kernel: e1000e 0000:00:19.0 eth0: Intel(R) PRO/1000 Network Connection
Aug 17 18:47:29 localhost kernel: e1000e 0000:00:19.0 eth0: MAC: 10, PHY: 11, PBA No: FFFFFF-0FF
Aug 17 18:47:29 localhost kernel: sky2: driver version 1.30
Aug 17 18:47:29 localhost kernel: ehci_hcd: USB 2.0 'Enhanced' Host Controller (EHCI) Driver
Aug 17 18:47:29 localhost kernel: ehci-pci: EHCI PCI platform driver
Aug 17 18:47:29 localhost kernel: ehci-pci 0000:00:1a.0: EHCI Host Controller
Aug 17 18:47:29 localhost kernel: ehci-pci 0000:00:1a.0: new USB bus registered, assigned bus number 1
Aug 17 18:47:29 localhost kernel: ehci-pci 0000:00:1a.0: debug port 2
Aug 17 18:47:29 localhost kernel: ehci-pci 0000:00:1a.0: irq 21, io mem 0xfbf27000
Aug 17 18:47:29 localhost kernel: ehci-pci 0000:00:1a.0: USB 2.0 started, EHCI 1.00
Aug 17 18:47:29 localhost kernel: usb usb1: New USB device found, idVendor=1d6b, idProduct=0002, bcdDevice= 5.15
Aug 17 18:47:29 localhost kernel: usb usb1: New USB device strings: Mfr=3, Product=2, SerialNumber=1
Aug 17 18:47:29 localhost kernel: usb usb1: Product: EHCI Host Controller
Aug 17 18:47:29 localhost kernel: usb usb1: Manufacturer: Linux 5.15.59-gentoo ehci_hcd
Aug 17 18:47:29 localhost kernel: usb usb1: SerialNumber: 0000:00:1a.0
Aug 17 18:47:29 localhost kernel: hub 1-0:1.0: USB hub found
Aug 17 18:47:29 localhost kernel: hub 1-0:1.0: 2 ports detected
Aug 17 18:47:29 localhost kernel: ehci-pci 0000:00:1d.0: EHCI Host Controller
Aug 17 18:47:29 localhost kernel: ehci-pci 0000:00:1d.0: new USB bus registered, assigned bus number 2
Aug 17 18:47:29 localhost kernel: ehci-pci 0000:00:1d.0: debug port 2
Aug 17 18:47:29 localhost kernel: ehci-pci 0000:00:1d.0: irq 23, io mem 0xfbf26000
Aug 17 18:47:29 localhost kernel: ehci-pci 0000:00:1d.0: USB 2.0 started, EHCI 1.00
Aug 17 18:47:29 localhost kernel: usb usb2: New USB device found, idVendor=1d6b, idProduct=0002, bcdDevice= 5.15
Aug 17 18:47:29 localhost kernel: usb usb2: New USB device strings: Mfr=3, Product=2, SerialNumber=1
Aug 17 18:47:29 localhost kernel: usb usb2: Product: EHCI Host Controller
Aug 17 18:47:29 localhost kernel: usb usb2: Manufacturer: Linux 5.15.59-gentoo ehci_hcd
Aug 17 18:47:29 localhost kernel: usb usb2: SerialNumber: 0000:00:1d.0
Aug 17 18:47:29 localhost kernel: hub 2-0:1.0: USB hub found
Aug 17 18:47:29 localhost kernel: hub 2-0:1.0: 2 ports detected
Aug 17 18:47:29 localhost kernel: ohci_hcd: USB 1.1 'Open' Host Controller (OHCI) Driver
Aug 17 18:47:29 localhost kernel: ohci-pci: OHCI PCI platform driver
Aug 17 18:47:29 localhost kernel: uhci_hcd: USB Universal Host Controller Interface driver
Aug 17 18:47:29 localhost kernel: xhci_hcd 0000:06:00.0: xHCI Host Controller
Aug 17 18:47:29 localhost kernel: xhci_hcd 0000:06:00.0: new USB bus registered, assigned bus number 3
Aug 17 18:47:29 localhost kernel: xhci_hcd 0000:06:00.0: hcc params 0x0200f180 hci version 0x96 quirks 0x0000000000080000
Aug 17 18:47:29 localhost kernel: xhci_hcd 0000:06:00.0: xHCI Host Controller
Aug 17 18:47:29 localhost kernel: xhci_hcd 0000:06:00.0: new USB bus registered, assigned bus number 4
Aug 17 18:47:29 localhost kernel: xhci_hcd 0000:06:00.0: Host supports USB 3.0 SuperSpeed
Aug 17 18:47:29 localhost kernel: usb usb3: New USB device found, idVendor=1d6b, idProduct=0002, bcdDevice= 5.15
Aug 17 18:47:29 localhost kernel: usb usb3: New USB device strings: Mfr=3, Product=2, SerialNumber=1
Aug 17 18:47:29 localhost kernel: usb usb3: Product: xHCI Host Controller
Aug 17 18:47:29 localhost kernel: usb usb3: Manufacturer: Linux 5.15.59-gentoo xhci-hcd
Aug 17 18:47:29 localhost kernel: usb usb3: SerialNumber: 0000:06:00.0
Aug 17 18:47:29 localhost kernel: hub 3-0:1.0: USB hub found
Aug 17 18:47:29 localhost kernel: hub 3-0:1.0: 2 ports detected
Aug 17 18:47:29 localhost kernel: usb usb4: We don't know the algorithms for LPM for this host, disabling LPM.
Aug 17 18:47:29 localhost kernel: usb usb4: New USB device found, idVendor=1d6b, idProduct=0003, bcdDevice= 5.15
Aug 17 18:47:29 localhost kernel: usb usb4: New USB device strings: Mfr=3, Product=2, SerialNumber=1
Aug 17 18:47:29 localhost kernel: usb usb4: Product: xHCI Host Controller
Aug 17 18:47:29 localhost kernel: usb usb4: Manufacturer: Linux 5.15.59-gentoo xhci-hcd
Aug 17 18:47:29 localhost kernel: usb usb4: SerialNumber: 0000:06:00.0
Aug 17 18:47:29 localhost kernel: hub 4-0:1.0: USB hub found
Aug 17 18:47:29 localhost kernel: hub 4-0:1.0: 2 ports detected
Aug 17 18:47:29 localhost kernel: xhci_hcd 0000:07:00.0: xHCI Host Controller
Aug 17 18:47:29 localhost kernel: xhci_hcd 0000:07:00.0: new USB bus registered, assigned bus number 5
Aug 17 18:47:29 localhost kernel: ata2: SATA link up 6.0 Gbps (SStatus 133 SControl 300)
Aug 17 18:47:29 localhost kernel: ata7: SATA link down (SStatus 0 SControl 300)
Aug 17 18:47:29 localhost kernel: ata9: SATA link down (SStatus 0 SControl 300)
Aug 17 18:47:29 localhost kernel: ata1: SATA link down (SStatus 0 SControl 300)
Aug 17 18:47:29 localhost kernel: ata2.00: ATA-11: WDC  WDS100T2B0A-00SM50, 415020WD, max UDMA/133
Aug 17 18:47:29 localhost kernel: ata2.00: 1953525168 sectors, multi 1: LBA48 NCQ (depth 32), AA
Aug 17 18:47:29 localhost kernel: ata2.00: Features: Dev-Sleep
Aug 17 18:47:29 localhost kernel: ata2.00: configured for UDMA/133
Aug 17 18:47:29 localhost kernel: scsi 1:0:0:0: Direct-Access     ATA      WDC  WDS100T2B0A 20WD PQ: 0 ANSI: 5
Aug 17 18:47:29 localhost kernel: sd 1:0:0:0: Attached scsi generic sg0 type 0
Aug 17 18:47:29 localhost kernel: sd 1:0:0:0: [sda] 1953525168 512-byte logical blocks: (1.00 TB/932 GiB)
Aug 17 18:47:29 localhost kernel: sd 1:0:0:0: [sda] Write Protect is off
Aug 17 18:47:29 localhost kernel: sd 1:0:0:0: [sda] Mode Sense: 00 3a 00 00
Aug 17 18:47:29 localhost kernel: sd 1:0:0:0: [sda] Write cache: enabled, read cache: enabled, doesn't support DPO or FUA
Aug 17 18:47:29 localhost kernel:  sda: sda1 sda2 sda3
Aug 17 18:47:29 localhost kernel: sd 1:0:0:0: [sda] Attached SCSI disk
Aug 17 18:47:29 localhost kernel: xhci_hcd 0000:07:00.0: hcc params 0x0200f180 hci version 0x96 quirks 0x0000000000080000
Aug 17 18:47:29 localhost kernel: xhci_hcd 0000:07:00.0: xHCI Host Controller
Aug 17 18:47:29 localhost kernel: xhci_hcd 0000:07:00.0: new USB bus registered, assigned bus number 6
Aug 17 18:47:29 localhost kernel: xhci_hcd 0000:07:00.0: Host supports USB 3.0 SuperSpeed
Aug 17 18:47:29 localhost kernel: usb usb5: New USB device found, idVendor=1d6b, idProduct=0002, bcdDevice= 5.15
Aug 17 18:47:29 localhost kernel: usb usb5: New USB device strings: Mfr=3, Product=2, SerialNumber=1
Aug 17 18:47:29 localhost kernel: usb usb5: Product: xHCI Host Controller
Aug 17 18:47:29 localhost kernel: usb usb5: Manufacturer: Linux 5.15.59-gentoo xhci-hcd
Aug 17 18:47:29 localhost kernel: usb usb5: SerialNumber: 0000:07:00.0
Aug 17 18:47:29 localhost kernel: hub 5-0:1.0: USB hub found
Aug 17 18:47:29 localhost kernel: hub 5-0:1.0: 2 ports detected
Aug 17 18:47:29 localhost kernel: usb usb6: We don't know the algorithms for LPM for this host, disabling LPM.
Aug 17 18:47:29 localhost kernel: usb usb6: New USB device found, idVendor=1d6b, idProduct=0003, bcdDevice= 5.15
Aug 17 18:47:29 localhost kernel: usb usb6: New USB device strings: Mfr=3, Product=2, SerialNumber=1
Aug 17 18:47:29 localhost kernel: usb usb6: Product: xHCI Host Controller
Aug 17 18:47:29 localhost kernel: usb usb6: Manufacturer: Linux 5.15.59-gentoo xhci-hcd
Aug 17 18:47:29 localhost kernel: usb usb6: SerialNumber: 0000:07:00.0
Aug 17 18:47:29 localhost kernel: hub 6-0:1.0: USB hub found
Aug 17 18:47:29 localhost kernel: hub 6-0:1.0: 2 ports detected
Aug 17 18:47:29 localhost kernel: xhci_hcd 0000:08:00.0: xHCI Host Controller
Aug 17 18:47:29 localhost kernel: xhci_hcd 0000:08:00.0: new USB bus registered, assigned bus number 7
Aug 17 18:47:30 localhost kernel: xhci_hcd 0000:08:00.0: hcc params 0x0200f180 hci version 0x96 quirks 0x0000000000080000
Aug 17 18:47:30 localhost kernel: xhci_hcd 0000:08:00.0: xHCI Host Controller
Aug 17 18:47:30 localhost kernel: xhci_hcd 0000:08:00.0: new USB bus registered, assigned bus number 8
Aug 17 18:47:30 localhost kernel: xhci_hcd 0000:08:00.0: Host supports USB 3.0 SuperSpeed
Aug 17 18:47:30 localhost kernel: usb usb7: New USB device found, idVendor=1d6b, idProduct=0002, bcdDevice= 5.15
Aug 17 18:47:30 localhost kernel: usb usb7: New USB device strings: Mfr=3, Product=2, SerialNumber=1
Aug 17 18:47:30 localhost kernel: usb usb7: Product: xHCI Host Controller
Aug 17 18:47:30 localhost kernel: usb usb7: Manufacturer: Linux 5.15.59-gentoo xhci-hcd
Aug 17 18:47:30 localhost kernel: usb usb7: SerialNumber: 0000:08:00.0
Aug 17 18:47:30 localhost kernel: hub 7-0:1.0: USB hub found
Aug 17 18:47:30 localhost kernel: hub 7-0:1.0: 2 ports detected
Aug 17 18:47:30 localhost kernel: usb usb8: We don't know the algorithms for LPM for this host, disabling LPM.
Aug 17 18:47:30 localhost kernel: usb usb8: New USB device found, idVendor=1d6b, idProduct=0003, bcdDevice= 5.15
Aug 17 18:47:30 localhost kernel: usb usb8: New USB device strings: Mfr=3, Product=2, SerialNumber=1
Aug 17 18:47:30 localhost kernel: usb usb8: Product: xHCI Host Controller
Aug 17 18:47:30 localhost kernel: usb usb8: Manufacturer: Linux 5.15.59-gentoo xhci-hcd
Aug 17 18:47:30 localhost kernel: usb usb8: SerialNumber: 0000:08:00.0
Aug 17 18:47:30 localhost kernel: hub 8-0:1.0: USB hub found
Aug 17 18:47:30 localhost kernel: hub 8-0:1.0: 2 ports detected
Aug 17 18:47:30 localhost kernel: xhci_hcd 0000:09:00.0: xHCI Host Controller
Aug 17 18:47:30 localhost kernel: xhci_hcd 0000:09:00.0: new USB bus registered, assigned bus number 9
Aug 17 18:47:30 localhost kernel: xhci_hcd 0000:09:00.0: hcc params 0x0200f180 hci version 0x96 quirks 0x0000000000080000
Aug 17 18:47:30 localhost kernel: xhci_hcd 0000:09:00.0: xHCI Host Controller
Aug 17 18:47:30 localhost kernel: xhci_hcd 0000:09:00.0: new USB bus registered, assigned bus number 10
Aug 17 18:47:30 localhost kernel: xhci_hcd 0000:09:00.0: Host supports USB 3.0 SuperSpeed
Aug 17 18:47:30 localhost kernel: usb usb9: New USB device found, idVendor=1d6b, idProduct=0002, bcdDevice= 5.15
Aug 17 18:47:30 localhost kernel: usb usb9: New USB device strings: Mfr=3, Product=2, SerialNumber=1
Aug 17 18:47:30 localhost kernel: usb usb9: Product: xHCI Host Controller
Aug 17 18:47:30 localhost kernel: usb usb9: Manufacturer: Linux 5.15.59-gentoo xhci-hcd
Aug 17 18:47:30 localhost kernel: usb usb9: SerialNumber: 0000:09:00.0
Aug 17 18:47:30 localhost kernel: hub 9-0:1.0: USB hub found
Aug 17 18:47:30 localhost kernel: hub 9-0:1.0: 2 ports detected
Aug 17 18:47:30 localhost kernel: usb usb10: We don't know the algorithms for LPM for this host, disabling LPM.
Aug 17 18:47:30 localhost kernel: usb usb10: New USB device found, idVendor=1d6b, idProduct=0003, bcdDevice= 5.15
Aug 17 18:47:30 localhost kernel: usb usb10: New USB device strings: Mfr=3, Product=2, SerialNumber=1
Aug 17 18:47:30 localhost kernel: usb usb10: Product: xHCI Host Controller
Aug 17 18:47:30 localhost kernel: usb usb10: Manufacturer: Linux 5.15.59-gentoo xhci-hcd
Aug 17 18:47:30 localhost kernel: usb usb10: SerialNumber: 0000:09:00.0
Aug 17 18:47:30 localhost kernel: hub 10-0:1.0: USB hub found
Aug 17 18:47:30 localhost kernel: hub 10-0:1.0: 2 ports detected
Aug 17 18:47:30 localhost kernel: usbcore: registered new interface driver usblp
Aug 17 18:47:30 localhost kernel: usbcore: registered new interface driver usb-storage
Aug 17 18:47:30 localhost kernel: i8042: PNP: No PS/2 controller found.
Aug 17 18:47:30 localhost kernel: rtc_cmos 00:02: RTC can wake from S4
Aug 17 18:47:30 localhost kernel: rtc_cmos 00:02: registered as rtc0
Aug 17 18:47:30 localhost kernel: rtc_cmos 00:02: alarms up to one month, y3k, 114 bytes nvram, hpet irqs
Aug 17 18:47:30 localhost kernel: i801_smbus 0000:00:1f.3: SMBus using PCI interrupt
Aug 17 18:47:30 localhost kernel: i2c i2c-0: 8/8 memory slots populated (from DMI)
Aug 17 18:47:30 localhost kernel: i2c i2c-0: Systems with more than 4 memory slots not supported yet, not instantiating SPD
Aug 17 18:47:30 localhost kernel: device-mapper: ioctl: 4.45.0-ioctl (2021-03-22) initialised: dm-devel@redhat.com
Aug 17 18:47:30 localhost kernel: intel_pstate: Intel P-state driver initializing
Aug 17 18:47:30 localhost kernel: hid: raw HID events driver (C) Jiri Kosina
Aug 17 18:47:30 localhost kernel: usbcore: registered new interface driver usbhid
Aug 17 18:47:30 localhost kernel: usbhid: USB HID core driver
Aug 17 18:47:30 localhost kernel: snd_hda_intel 0000:02:00.1: Force to non-snoop mode
Aug 17 18:47:30 localhost kernel: Initializing XFRM netlink socket
Aug 17 18:47:30 localhost kernel: NET: Registered PF_INET6 protocol family
Aug 17 18:47:30 localhost kernel: Segment Routing with IPv6
Aug 17 18:47:30 localhost kernel: In-situ OAM (IOAM) with IPv6
Aug 17 18:47:30 localhost kernel: sit: IPv6, IPv4 and MPLS over IPv4 tunneling driver
Aug 17 18:47:30 localhost kernel: snd_hda_intel 0000:02:00.1: Cannot probe codecs, giving up
Aug 17 18:47:30 localhost kernel: NET: Registered PF_PACKET protocol family
Aug 17 18:47:30 localhost kernel: Key type dns_resolver registered
Aug 17 18:47:30 localhost kernel: microcode: sig=0x206d7, pf=0x4, revision=0x70c
Aug 17 18:47:30 localhost kernel: microcode: Microcode Update Driver: v2.2.
Aug 17 18:47:30 localhost kernel: IPI shorthand broadcast: enabled
Aug 17 18:47:30 localhost kernel: registered taskstats version 1
Aug 17 18:47:30 localhost kernel: Loading compiled-in X.509 certificates
Aug 17 18:47:30 localhost kernel: Btrfs loaded, crc32c=crc32c-generic, debug=on, assert=on, integrity-checker=on, ref-verify=on, zoned=no, fsverity=no
Aug 17 18:47:30 localhost kernel: BTRFS: selftest: sectorsize: 4096  nodesize: 4096
Aug 17 18:47:30 localhost kernel: BTRFS: selftest: running btrfs free space cache tests
Aug 17 18:47:30 localhost kernel: BTRFS: selftest: running extent only tests
Aug 17 18:47:30 localhost kernel: BTRFS: selftest: running bitmap only tests
Aug 17 18:47:30 localhost kernel: BTRFS: selftest: running bitmap and extent tests
Aug 17 18:47:30 localhost kernel: BTRFS: selftest: running space stealing from bitmap to extent tests
Aug 17 18:47:30 localhost kernel: BTRFS: selftest: running extent buffer operation tests
Aug 17 18:47:30 localhost kernel: BTRFS: selftest: running btrfs_split_item tests
Aug 17 18:47:30 localhost kernel: BTRFS: selftest: running extent I/O tests
Aug 17 18:47:30 localhost kernel: BTRFS: selftest: running find delalloc tests
Aug 17 18:47:30 localhost kernel: snd_hda_intel 0000:00:1b.0: Cannot probe codecs, giving up
Aug 17 18:47:30 localhost kernel: usb 2-1: new high-speed USB device number 2 using ehci-pci
Aug 17 18:47:30 localhost kernel: usb 1-1: new high-speed USB device number 2 using ehci-pci
Aug 17 18:47:30 localhost kernel: BTRFS: selftest: running find_first_clear_extent_bit test
Aug 17 18:47:30 localhost kernel: BTRFS: selftest: running extent buffer bitmap tests
Aug 17 18:47:30 localhost kernel: BTRFS: selftest: running inode tests
Aug 17 18:47:30 localhost kernel: BTRFS: selftest: running btrfs_get_extent tests
Aug 17 18:47:30 localhost kernel: BTRFS: selftest: running hole first btrfs_get_extent test
Aug 17 18:47:30 localhost kernel: BTRFS: selftest: running outstanding_extents tests
Aug 17 18:47:30 localhost kernel: BTRFS: selftest: running qgroup tests
Aug 17 18:47:30 localhost kernel: BTRFS: selftest: running qgroup add/remove tests
Aug 17 18:47:30 localhost kernel: BTRFS: selftest: running qgroup multiple refs test
Aug 17 18:47:30 localhost kernel: BTRFS: selftest: running free space tree tests
Aug 17 18:47:30 localhost kernel: BTRFS: selftest: sectorsize: 4096  nodesize: 8192
Aug 17 18:47:30 localhost kernel: BTRFS: selftest: running btrfs free space cache tests
Aug 17 18:47:30 localhost kernel: BTRFS: selftest: running extent only tests
Aug 17 18:47:30 localhost kernel: BTRFS: selftest: running bitmap only tests
Aug 17 18:47:30 localhost kernel: BTRFS: selftest: running bitmap and extent tests
Aug 17 18:47:30 localhost kernel: BTRFS: selftest: running space stealing from bitmap to extent tests
Aug 17 18:47:30 localhost kernel: BTRFS: selftest: running extent buffer operation tests
Aug 17 18:47:30 localhost kernel: BTRFS: selftest: running btrfs_split_item tests
Aug 17 18:47:30 localhost kernel: BTRFS: selftest: running extent I/O tests
Aug 17 18:47:30 localhost kernel: BTRFS: selftest: running find delalloc tests
Aug 17 18:47:30 localhost kernel: ata8: SATA link down (SStatus 0 SControl 300)
Aug 17 18:47:30 localhost kernel: usb 2-1: New USB device found, idVendor=8087, idProduct=0024, bcdDevice= 0.00
Aug 17 18:47:30 localhost kernel: usb 2-1: New USB device strings: Mfr=0, Product=0, SerialNumber=0
Aug 17 18:47:30 localhost kernel: usb 1-1: New USB device found, idVendor=8087, idProduct=0024, bcdDevice= 0.00
Aug 17 18:47:30 localhost kernel: usb 1-1: New USB device strings: Mfr=0, Product=0, SerialNumber=0
Aug 17 18:47:30 localhost kernel: hub 2-1:1.0: USB hub found
Aug 17 18:47:30 localhost kernel: hub 1-1:1.0: USB hub found
Aug 17 18:47:30 localhost kernel: hub 2-1:1.0: 8 ports detected
Aug 17 18:47:30 localhost kernel: hub 1-1:1.0: 6 ports detected
Aug 17 18:47:30 localhost kernel: BTRFS: selftest: running find_first_clear_extent_bit test
Aug 17 18:47:30 localhost kernel: BTRFS: selftest: running extent buffer bitmap tests
Aug 17 18:47:30 localhost kernel: BTRFS: selftest: running inode tests
Aug 17 18:47:30 localhost kernel: BTRFS: selftest: running btrfs_get_extent tests
Aug 17 18:47:30 localhost kernel: BTRFS: selftest: running hole first btrfs_get_extent test
Aug 17 18:47:30 localhost kernel: BTRFS: selftest: running outstanding_extents tests
Aug 17 18:47:30 localhost kernel: BTRFS: selftest: running qgroup tests
Aug 17 18:47:30 localhost kernel: BTRFS: selftest: running qgroup add/remove tests
Aug 17 18:47:30 localhost kernel: BTRFS: selftest: running qgroup multiple refs test
Aug 17 18:47:30 localhost kernel: BTRFS: selftest: running free space tree tests
Aug 17 18:47:30 localhost kernel: BTRFS: selftest: sectorsize: 4096  nodesize: 16384
Aug 17 18:47:30 localhost kernel: BTRFS: selftest: running btrfs free space cache tests
Aug 17 18:47:30 localhost kernel: BTRFS: selftest: running extent only tests
Aug 17 18:47:30 localhost kernel: BTRFS: selftest: running bitmap only tests
Aug 17 18:47:30 localhost kernel: BTRFS: selftest: running bitmap and extent tests
Aug 17 18:47:30 localhost kernel: BTRFS: selftest: running space stealing from bitmap to extent tests
Aug 17 18:47:30 localhost kernel: BTRFS: selftest: running extent buffer operation tests
Aug 17 18:47:30 localhost kernel: BTRFS: selftest: running btrfs_split_item tests
Aug 17 18:47:30 localhost kernel: BTRFS: selftest: running extent I/O tests
Aug 17 18:47:30 localhost kernel: BTRFS: selftest: running find delalloc tests
Aug 17 18:47:30 localhost kernel: BTRFS: selftest: running find_first_clear_extent_bit test
Aug 17 18:47:30 localhost kernel: BTRFS: selftest: running extent buffer bitmap tests
Aug 17 18:47:30 localhost kernel: BTRFS: selftest: running inode tests
Aug 17 18:47:30 localhost kernel: BTRFS: selftest: running btrfs_get_extent tests
Aug 17 18:47:30 localhost kernel: BTRFS: selftest: running hole first btrfs_get_extent test
Aug 17 18:47:30 localhost kernel: BTRFS: selftest: running outstanding_extents tests
Aug 17 18:47:30 localhost kernel: BTRFS: selftest: running qgroup tests
Aug 17 18:47:30 localhost kernel: BTRFS: selftest: running qgroup add/remove tests
Aug 17 18:47:30 localhost kernel: BTRFS: selftest: running qgroup multiple refs test
Aug 17 18:47:30 localhost kernel: BTRFS: selftest: running free space tree tests
Aug 17 18:47:30 localhost kernel: ata10: SATA link down (SStatus 0 SControl 300)
Aug 17 18:47:30 localhost kernel: usb 1-1.6: new full-speed USB device number 3 using ehci-pci
Aug 17 18:47:30 localhost kernel: usb 2-1.1: new low-speed USB device number 3 using ehci-pci
Aug 17 18:47:30 localhost kernel: BTRFS: selftest: sectorsize: 4096  nodesize: 32768
Aug 17 18:47:30 localhost kernel: BTRFS: selftest: running btrfs free space cache tests
Aug 17 18:47:30 localhost kernel: BTRFS: selftest: running extent only tests
Aug 17 18:47:30 localhost kernel: BTRFS: selftest: running bitmap only tests
Aug 17 18:47:30 localhost kernel: BTRFS: selftest: running bitmap and extent tests
Aug 17 18:47:30 localhost kernel: BTRFS: selftest: running space stealing from bitmap to extent tests
Aug 17 18:47:30 localhost kernel: BTRFS: selftest: running extent buffer operation tests
Aug 17 18:47:30 localhost kernel: BTRFS: selftest: running btrfs_split_item tests
Aug 17 18:47:30 localhost kernel: BTRFS: selftest: running extent I/O tests
Aug 17 18:47:30 localhost kernel: BTRFS: selftest: running find delalloc tests
Aug 17 18:47:30 localhost kernel: usb 1-1.6: New USB device found, idVendor=0b05, idProduct=179c, bcdDevice= 0.01
Aug 17 18:47:30 localhost kernel: usb 1-1.6: New USB device strings: Mfr=0, Product=0, SerialNumber=0
Aug 17 18:47:30 localhost kernel: usb 2-1.1: New USB device found, idVendor=1c4f, idProduct=0002, bcdDevice= 1.10
Aug 17 18:47:30 localhost kernel: usb 2-1.1: New USB device strings: Mfr=1, Product=2, SerialNumber=0
Aug 17 18:47:30 localhost kernel: usb 2-1.1: Product: HCT Keyboard
Aug 17 18:47:30 localhost kernel: usb 2-1.1: Manufacturer: SEM
Aug 17 18:47:30 localhost kernel: input: SEM HCT Keyboard as /devices/pci0000:00/0000:00:1d.0/usb2/2-1/2-1.1/2-1.1:1.0/0003:1C4F:0002.0001/input/input2
Aug 17 18:47:30 localhost kernel: BTRFS: selftest: running find_first_clear_extent_bit test
Aug 17 18:47:30 localhost kernel: BTRFS: selftest: running extent buffer bitmap tests
Aug 17 18:47:30 localhost kernel: hid-generic 0003:1C4F:0002.0001: input,hidraw0: USB HID v1.10 Keyboard [SEM HCT Keyboard] on usb-0000:00:1d.0-1.1/input0
Aug 17 18:47:30 localhost kernel: input: SEM HCT Keyboard Consumer Control as /devices/pci0000:00/0000:00:1d.0/usb2/2-1/2-1.1/2-1.1:1.1/0003:1C4F:0002.0002/input/input3
Aug 17 18:47:30 localhost kernel: input: SEM HCT Keyboard System Control as /devices/pci0000:00/0000:00:1d.0/usb2/2-1/2-1.1/2-1.1:1.1/0003:1C4F:0002.0002/input/input4
Aug 17 18:47:30 localhost kernel: hid-generic 0003:1C4F:0002.0002: input,hidraw1: USB HID v1.10 Device [SEM HCT Keyboard] on usb-0000:00:1d.0-1.1/input1
Aug 17 18:47:30 localhost kernel: BTRFS: selftest: running inode tests
Aug 17 18:47:30 localhost kernel: BTRFS: selftest: running btrfs_get_extent tests
Aug 17 18:47:30 localhost kernel: BTRFS: selftest: running hole first btrfs_get_extent test
Aug 17 18:47:30 localhost kernel: BTRFS: selftest: running outstanding_extents tests
Aug 17 18:47:30 localhost kernel: BTRFS: selftest: running qgroup tests
Aug 17 18:47:30 localhost kernel: BTRFS: selftest: running qgroup add/remove tests
Aug 17 18:47:30 localhost kernel: BTRFS: selftest: running qgroup multiple refs test
Aug 17 18:47:30 localhost kernel: BTRFS: selftest: running free space tree tests
Aug 17 18:47:30 localhost kernel: usb 2-1.2: new low-speed USB device number 4 using ehci-pci
Aug 17 18:47:30 localhost kernel: BTRFS: selftest: sectorsize: 4096  nodesize: 65536
Aug 17 18:47:30 localhost kernel: BTRFS: selftest: running btrfs free space cache tests
Aug 17 18:47:30 localhost kernel: BTRFS: selftest: running extent only tests
Aug 17 18:47:30 localhost kernel: BTRFS: selftest: running bitmap only tests
Aug 17 18:47:30 localhost kernel: BTRFS: selftest: running bitmap and extent tests
Aug 17 18:47:30 localhost kernel: BTRFS: selftest: running space stealing from bitmap to extent tests
Aug 17 18:47:30 localhost kernel: BTRFS: selftest: running extent buffer operation tests
Aug 17 18:47:30 localhost kernel: BTRFS: selftest: running btrfs_split_item tests
Aug 17 18:47:30 localhost kernel: BTRFS: selftest: running extent I/O tests
Aug 17 18:47:30 localhost kernel: BTRFS: selftest: running find delalloc tests
Aug 17 18:47:30 localhost kernel: usb 2-1.2: New USB device found, idVendor=05b8, idProduct=3280, bcdDevice= 1.00
Aug 17 18:47:30 localhost kernel: usb 2-1.2: New USB device strings: Mfr=1, Product=2, SerialNumber=0
Aug 17 18:47:30 localhost kernel: usb 2-1.2: Product: USB Optical Mouse
Aug 17 18:47:30 localhost kernel: usb 2-1.2: Manufacturer: PixArt
Aug 17 18:47:30 localhost kernel: input: PixArt USB Optical Mouse as /devices/pci0000:00/0000:00:1d.0/usb2/2-1/2-1.2/2-1.2:1.0/0003:05B8:3280.0003/input/input5
Aug 17 18:47:30 localhost kernel: hid-generic 0003:05B8:3280.0003: input,hidraw2: USB HID v1.11 Mouse [PixArt USB Optical Mouse] on usb-0000:00:1d.0-1.2/input0
Aug 17 18:47:30 localhost kernel: BTRFS: selftest: running find_first_clear_extent_bit test
Aug 17 18:47:30 localhost kernel: BTRFS: selftest: running extent buffer bitmap tests
Aug 17 18:47:31 localhost kernel: BTRFS: selftest: running inode tests
Aug 17 18:47:31 localhost kernel: BTRFS: selftest: running btrfs_get_extent tests
Aug 17 18:47:31 localhost kernel: BTRFS: selftest: running hole first btrfs_get_extent test
Aug 17 18:47:31 localhost kernel: BTRFS: selftest: running outstanding_extents tests
Aug 17 18:47:31 localhost kernel: BTRFS: selftest: running qgroup tests
Aug 17 18:47:31 localhost kernel: BTRFS: selftest: running qgroup add/remove tests
Aug 17 18:47:31 localhost kernel: BTRFS: selftest: running qgroup multiple refs test
Aug 17 18:47:31 localhost kernel: BTRFS: selftest: running free space tree tests
Aug 17 18:47:31 localhost kernel: BTRFS: selftest: running extent_map tests
Aug 17 18:47:31 localhost kernel: BTRFS: selftest: running rmap tests
Aug 17 18:47:31 localhost kernel: PM:   Magic number: 2:436:797
Aug 17 18:47:31 localhost kernel: printk: console [netcon0] enabled
Aug 17 18:47:31 localhost kernel: netconsole: network logging started
Aug 17 18:47:31 localhost kernel: cfg80211: Loading compiled-in X.509 certificates for regulatory database
Aug 17 18:47:31 localhost kernel: kworker/u24:9 (181) used greatest stack depth: 14288 bytes left
Aug 17 18:47:31 localhost kernel: cfg80211: Loaded X.509 cert 'sforshee: 00b28ddf47aef9cea7'
Aug 17 18:47:31 localhost kernel: Loading firmware: regulatory.db
Aug 17 18:47:31 localhost kernel: platform regulatory.0: Direct firmware load for regulatory.db failed with error -2
Aug 17 18:47:31 localhost kernel: cfg80211: failed to load regulatory.db
Aug 17 18:47:31 localhost kernel: Unstable clock detected, switching default tracing clock to "global"
If you want to keep using the local clock, then add:
  "trace_clock=local"
on the kernel command line
Aug 17 18:47:31 localhost kernel: ALSA device list:
Aug 17 18:47:31 localhost kernel:   No soundcards found.
Aug 17 18:47:31 localhost kernel: md: Waiting for all devices to be available before autodetect
Aug 17 18:47:31 localhost kernel: md: If you don't use raid, use raid=noautodetect
Aug 17 18:47:31 localhost kernel: md: Autodetecting RAID arrays.
Aug 17 18:47:31 localhost kernel: md: autorun ...
Aug 17 18:47:31 localhost kernel: md: ... autorun DONE.
Aug 17 18:47:31 localhost kernel: EXT4-fs (sda3): mounted filesystem with ordered data mode. Opts: (null). Quota mode: none.
Aug 17 18:47:31 localhost kernel: VFS: Mounted root (ext4 filesystem) readonly on device 8:3.
Aug 17 18:47:31 localhost kernel: devtmpfs: mounted
Aug 17 18:47:31 localhost kernel: Freeing unused kernel image (initmem) memory: 1500K
Aug 17 18:47:31 localhost kernel: Write protecting the kernel read-only data: 26624k
Aug 17 18:47:31 localhost kernel: Freeing unused kernel image (text/rodata gap) memory: 2032K
Aug 17 18:47:31 localhost kernel: Freeing unused kernel image (rodata/data gap) memory: 532K
Aug 17 18:47:31 localhost kernel: Run /sbin/init as init process
Aug 17 18:47:31 localhost kernel:   with arguments:
Aug 17 18:47:31 localhost kernel:     /sbin/init
Aug 17 18:47:31 localhost kernel:   with environment:
Aug 17 18:47:31 localhost kernel:     HOME=/
Aug 17 18:47:31 localhost kernel:     TERM=linux
Aug 17 18:47:31 localhost kernel:     BOOT_IMAGE=/vmlinuz-5.15.59-gentoo
Aug 17 18:47:31 localhost kernel: kbd_mode (193) used greatest stack depth: 13168 bytes left
Aug 17 18:47:31 localhost kernel: loadkeys (195) used greatest stack depth: 13008 bytes left
Aug 17 18:47:32 localhost kernel: e1000e 0000:00:19.0 eno1: renamed from eth0
Aug 17 18:47:33 localhost kernel: EXT4-fs (sda3): re-mounted. Opts: (null). Quota mode: none.
Aug 17 18:47:33 localhost kernel: random: ln: uninitialized urandom read (6 bytes read)
Aug 17 18:47:33 localhost kernel: Adding 67108860k swap on /dev/sda2.  Priority:-2 extents:1 across:67108860k SS
Aug 17 18:47:33 localhost kernel: EXT4-fs (sda1): mounted filesystem with ordered data mode. Opts: (null). Quota mode: none.
Aug 17 18:47:33 localhost kernel: random: mktemp: uninitialized urandom read (10 bytes read)
Aug 17 18:47:33 localhost kernel: ip (1244) used greatest stack depth: 12344 bytes left
Aug 17 18:47:34 localhost kernel: random: chronyd: uninitialized urandom read (4096 bytes read)
Aug 17 18:47:35 localhost crond[1476]: (CRON) STARTUP (1.5.7)
Aug 17 18:47:35 localhost crond[1476]: (CRON) INFO (Syslog will be used instead of sendmail.)
Aug 17 18:47:35 localhost crond[1476]: (CRON) INFO (RANDOM_DELAY will be scaled with factor 85% if used.)
Aug 17 18:47:35 localhost crond[1476]: (CRON) INFO (running with inotify support)
Aug 17 18:47:35 localhost dhcpcd[1504]: dhcpcd-9.4.1 starting
Aug 17 18:47:35 localhost dhcpcd[1506]: dev: loaded udev
Aug 17 18:47:35 localhost dhcpcd[1506]: DUID 00:04:03:00:02:00:04:00:05:00:00:06:00:07:00:08:00:09
Aug 17 18:47:35 localhost dhcpcd[1506]: no interfaces have a carrier
Aug 17 18:47:35 localhost dhcpcd[1506]: eno1: waiting for carrier
Aug 17 18:47:36 localhost /etc/init.d/net.eth0[1668]: ERROR: interface eth0 does not exist
Aug 17 18:47:36 localhost /etc/init.d/net.eth0[1669]: Ensure that you have loaded the correct kernel module for your hardware
Aug 17 18:47:36 localhost /etc/init.d/net.eth0[1527]: ERROR: net.eth0 failed to start
Aug 17 18:47:36 localhost /etc/init.d/netmount[1671]: ERROR: cannot start netmount as net.eth0 would not start
Aug 17 18:47:36 localhost kernel: random: crng init done
Aug 17 18:47:38 localhost dhcpcd[1506]: eno1: carrier acquired
Aug 17 18:47:38 localhost kernel: e1000e 0000:00:19.0 eno1: NIC Link is Up 1000 Mbps Full Duplex, Flow Control: Rx/Tx
Aug 17 18:47:38 localhost kernel: IPv6: ADDRCONF(NETDEV_CHANGE): eno1: link becomes ready
Aug 17 18:47:38 localhost dhcpcd[1506]: eno1: IAID 88:88:87:88
Aug 17 18:47:38 localhost dhcpcd[1506]: eno1: adding address fe80::f0d8:5f62:49bb:5c8f
Aug 17 18:47:39 localhost dhcpcd[1506]: eno1: soliciting an IPv6 router
Aug 17 18:47:40 localhost dhcpcd[1506]: eno1: rebinding lease of 192.168.1.48
Aug 17 18:47:40 localhost dhcpcd[1506]: eno1: probing address 192.168.1.48/24
Aug 17 18:47:45 localhost dhcpcd[1506]: eno1: leased 192.168.1.48 for 86400 seconds
Aug 17 18:47:45 localhost dhcpcd[1506]: eno1: adding route to 192.168.1.0/24
Aug 17 18:47:45 localhost dhcpcd[1506]: eno1: adding default route via 192.168.1.1
Aug 17 18:47:52 localhost dhcpcd[1506]: eno1: no IPv6 Routers available
Aug 17 18:47:58 localhost shutdown[1766]: shutting down for system reboot
Aug 17 18:47:58 localhost init: Switching to runlevel: 6
Aug 17 18:47:58 localhost init: Trying to re-exec init
Aug 17 18:47:58 localhost start-stop-daemon: Will stop /usr/sbin/sshd
Aug 17 18:47:58 localhost start-stop-daemon: Will stop PID 1698
Aug 17 18:47:58 localhost start-stop-daemon: Sending signal 15 to PID 1698
Aug 17 18:47:59 localhost start-stop-daemon: Will stop /sbin/dhcpcd
Aug 17 18:47:59 localhost start-stop-daemon: Will stop PID 1506
Aug 17 18:47:59 localhost start-stop-daemon: Sending signal 15 to PID 1506
Aug 17 18:47:59 localhost dhcpcd[1506]: received SIGTERM, stopping
Aug 17 18:47:59 localhost dhcpcd[1506]: eno1: removing interface
Aug 17 18:47:59 localhost dhcpcd[1506]: dhcpcd exited
Aug 17 18:47:59 localhost start-stop-daemon: Will stop /usr/sbin/crond
Aug 17 18:47:59 localhost start-stop-daemon: Will stop PID 1476
Aug 17 18:47:59 localhost start-stop-daemon: Sending signal 15 to PID 1476
Aug 17 18:47:59 localhost crond[1476]: (CRON) INFO (Shutting down)
Aug 17 18:47:59 localhost start-stop-daemon: Will stop /usr/sbin/syslogd
Aug 17 18:47:59 localhost start-stop-daemon: Will stop PID 1447
Aug 17 18:47:59 localhost syslogd[1447]: exiting on signal 15
