[AMD/ATI] Oland PRO [Radeon R7 240/340] (rev 87)

/dev/sda1   /boot        vfat    defaults,noatime     0 2
/dev/sda2   none         swap    sw                   0 0
/dev/sda3   /            ext4    noatime              0 1
