
[ebuild   R    ] sys-devel/gnuconfig-20230731 
[ebuild   R    ] virtual/libintl-0-r2 
[ebuild   R    ] virtual/libiconv-0-r2 
[ebuild   R    ] dev-libs/libffi-3.4.4-r4 
[ebuild   R    ] app-misc/mime-types-2.1.54 
[ebuild   R    ] app-text/libpaper-2.1.2 
[ebuild   R    ] sys-apps/baselayout-2.14-r2 
[ebuild   R    ] sec-keys/openpgp-keys-gentoo-release-20230329 
[ebuild   R    ] dev-python/gentoo-common-1 
[ebuild   R    ] net-dns/c-ares-1.26.0 
[ebuild   R    ] dev-python/ensurepip-pip-24.0 
[ebuild   R    ] net-libs/libmnl-1.0.5 
[ebuild   R    ] acct-group/lp-0-r3 
[ebuild   R    ] acct-group/root-0-r2 
[ebuild   R    ] app-misc/editor-wrapper-4-r1 
[ebuild   R    ] acct-group/man-0-r3 
[ebuild   R    ] acct-group/sshd-0-r3 
[ebuild   R    ] dev-lang/python-exec-conf-2.4.6 
[ebuild   R    ] dev-python/ensurepip-setuptools-69.1.1 
[ebuild   R    ] acct-group/messagebus-0-r3 
[ebuild   R    ] dev-lang/duktape-2.7.0-r3 
[ebuild   R    ] acct-group/polkitd-0-r3 
[ebuild   R    ] dev-libs/lzo-2.10 
[ebuild   R    ] app-arch/ncompress-5.0-r1 
[ebuild   R    ] app-crypt/libmd-1.1.0 
[ebuild   R    ] sys-devel/llvm-common-17.0.6 
[ebuild   R    ] sys-apps/install-xattr-0.8-r1 
[ebuild   R    ] acct-group/portage-0-r2 
[ebuild   R    ] acct-group/lpadmin-0-r3 
[ebuild   R    ] dev-util/pkgconf-2.1.1 
[ebuild   R    ] app-text/manpager-1 
[ebuild   R    ] acct-group/audio-0-r3 
[ebuild   R    ] acct-group/cdrom-0-r3 
[ebuild   R    ] acct-group/dialout-0-r3 
[ebuild   R    ] acct-group/disk-0-r3 
[ebuild   R    ] acct-group/floppy-0-r1 
[ebuild   R    ] acct-group/input-0-r3 
[ebuild   R    ] acct-group/kmem-0-r3 
[ebuild   R    ] acct-group/kvm-0-r3 
[ebuild   R    ] acct-group/render-0-r3 
[ebuild   R    ] acct-group/sgx-0-r2 
[ebuild   R    ] acct-group/tape-0-r3 
[ebuild   R    ] acct-group/tty-0-r3 
[ebuild   R    ] acct-group/usb-0-r3 
[ebuild   R    ] acct-group/video-0-r3 
[ebuild   R    ] sys-apps/which-2.21 
[ebuild   R    ] dev-build/autoconf-archive-2023.02.20 
[ebuild   R    ] dev-util/gperf-3.1-r2 
[ebuild   R    ] app-text/sgml-common-0.6.3-r7 
[ebuild   R    ] media-libs/libogg-1.3.5-r1 
[ebuild   R    ] dev-build/autoconf-wrapper-20231224 
[ebuild   R    ] x11-misc/util-macros-1.20.0 
[ebuild   R    ] sys-apps/hwdata-0.376 
[ebuild   R    ] acct-group/apache-0-r3 
[ebuild   R    ] media-libs/giflib-5.2.1-r1 
[ebuild   R    ] acct-group/cron-0-r2 
[ebuild   R    ] app-text/poppler-data-0.4.12 
[ebuild   R    ] acct-group/avahi-0-r3 
[ebuild   R    ] acct-group/ntp-0-r3 
[ebuild   R    ] acct-group/pcap-0-r1 
[ebuild   R    ] acct-group/nullmail-0-r2 
[ebuild   R    ] acct-group/locate-0-r3 
[ebuild   R    ] dev-lang/go-1.22.1 
[ebuild   R    ] dev-libs/ell-0.62 
[ebuild   R    ] dev-build/automake-wrapper-20221207 
[ebuild   R    ] dev-util/re2c-2.2 
[ebuild   R    ] media-libs/alsa-topology-conf-1.2.5.1 
[ebuild   R    ] media-libs/alsa-ucm-conf-1.2.10-r1 
[ebuild   R    ] dev-build/b2-5.0.0 
[ebuild   R    ] app-crypt/argon2-20190702-r1 
[ebuild   R    ] acct-group/utmp-0-r3 
[ebuild   R    ] acct-group/crontab-0-r2 
[ebuild   R    ] sys-apps/config-site-0 
[ebuild   R    ] acct-group/netdev-0-r3 
[ebuild   R    ] dev-libs/liblinear-246 
[ebuild   R    ] media-libs/libdvbpsi-1.3.3 
[ebuild   R    ] media-libs/libdvdcss-1.4.3 
[ebuild   R    ] dev-build/netsurf-buildsystem-1.10 
[ebuild   R    ] dev-libs/oniguruma-6.9.8 
[ebuild   R    ] dev-embedded/arduino-ctags-20161123-r1 
[ebuild   R    ] app-shells/push-3.4 
[ebuild   R    ] app-shells/quoter-4.2 
[ebuild   R    ] acct-group/ftp-0-r3 
[ebuild   R    ] app-portage/cpuid2cpuflags-14 
[ebuild   R    ] app-text/tree-2.1.1 
[ebuild   R    ] net-analyzer/traceroute-2.1.5 
[ebuild   R    ] sys-apps/dmidecode-3.5-r3 
[ebuild   R    ] sys-apps/memtest86-4.3.7-r4 
[ebuild   R    ] sys-apps/memtest86+-6.20-r1 
[ebuild   R    ] sys-kernel/linux-firmware-20240312 
[ebuild   R    ] virtual/pkgconfig-3 
[ebuild   R    ] dev-lang/python-exec-2.4.10 
[ebuild   R    ] sys-libs/timezone-data-2024a-r1 
[ebuild   R    ] dev-python/ensurepip-wheels-100 
[ebuild   R    ] acct-user/messagebus-0-r3 
[ebuild   R    ] acct-user/polkitd-0-r3 
[ebuild   R    ] acct-user/portage-0-r3 
[ebuild   R    ] acct-user/man-1-r3 
[ebuild   R    ] acct-user/sshd-0-r3 
[ebuild   R    ] sys-libs/libutempter-1.2.1 
[ebuild   R    ] acct-user/apache-0-r3 
[ebuild   R    ] acct-user/cron-0-r3 
[ebuild   R    ] acct-user/avahi-0-r3 
[ebuild   R    ] acct-user/ntp-0-r3 
[ebuild   R    ] acct-user/pcap-0-r1 
[ebuild   R    ] acct-user/nullmail-0-r2 
[ebuild   R    ] acct-user/ftp-0-r5 
[ebuild   R    ] dev-libs/libpipeline-1.5.7 
[ebuild   R    ] media-libs/libdvdread-6.1.3 
[ebuild   R    ] media-libs/libsamplerate-0.2.2 
[ebuild   R    ] app-admin/sysklogd-2.5.2 
[ebuild   R    ] dev-libs/libburn-1.5.6 
[ebuild   R    ] sys-process/cronbase-0.3.7-r10 
[ebuild   R    ] sys-fs/fuse-common-3.10.4 
[ebuild   R    ] media-libs/libnsgif-1.0.0-r1 
[ebuild   R    ] media-libs/sbc-2.0 
[ebuild   R    ] virtual/logger-0-r1 
[ebuild   R    ] app-arch/bzip2-1.0.8-r5 
[ebuild   R    ] app-alternatives/bzip2-1 
[ebuild   R    ] app-arch/gzip-1.13 
[ebuild   R    ] app-alternatives/gzip-1 
[ebuild   R    ] x11-base/xorg-drivers-21.1-r2 
[ebuild   R    ] app-arch/cpio-2.15 
[ebuild   R    ] app-alternatives/cpio-0 
[ebuild   R    ] virtual/libcrypt-2-r1 
[ebuild   R    ] virtual/libudev-251-r2 
[ebuild   R    ] sys-apps/gentoo-functions-0.19 
[ebuild   R    ] sys-devel/binutils-config-5.5 
[ebuild   R    ] virtual/os-headers-0-r2 
[ebuild   R    ] virtual/acl-0-r2 
[ebuild   R    ] virtual/libelf-3-r1 
[ebuild   R    ] app-alternatives/awk-4 
[ebuild   R    ] virtual/ttf-fonts-1-r2 
[ebuild   R    ] app-eselect/eselect-fontconfig-20220403 
[ebuild   R    ] sys-apps/locale-gen-2.23-r1 
[ebuild   R    ] app-alternatives/ninja-1 
[ebuild   R    ] dev-build/meson-format-array-0 
[ebuild   R    ] app-text/docbook-xsl-stylesheets-1.79.1-r4 
[ebuild   R    ] app-alternatives/yacc-1-r2 
[ebuild   R    ] app-alternatives/lex-0-r1 
[ebuild   R    ] app-text/build-docbook-catalog-2.4 
[ebuild   R    ] virtual/w3m-1 
[ebuild   R    ] virtual/perl-Carp-1.540.0 
[ebuild   R    ] virtual/perl-Exporter-5.770.0-r1 
[ebuild   R    ] virtual/perl-Encode-3.190.0 
[ebuild   R    ] virtual/perl-File-Spec-3.880.0 
[ebuild   R    ] virtual/perl-Scalar-List-Utils-1.630.0 
[ebuild   R    ] virtual/perl-Data-Dumper-2.188.0 
[ebuild   R    ] virtual/perl-Test-Harness-3.440.0-r1 
[ebuild   R    ] virtual/perl-ExtUtils-MakeMaker-7.700.0 
[ebuild   R    ] virtual/perl-ExtUtils-CBuilder-0.280.238 
[ebuild   R    ] virtual/perl-ExtUtils-ParseXS-3.510.0 
[ebuild   R    ] virtual/perl-Getopt-Long-2.540.0 
[ebuild   R    ] virtual/perl-CPAN-Meta-2.150.10-r7 
[ebuild   R    ] virtual/perl-ExtUtils-Install-2.220.0 
[ebuild   R    ] virtual/perl-ExtUtils-Manifest-1.730.0-r2 
[ebuild   R    ] virtual/perl-Module-Metadata-1.0.37-r3 
[ebuild   R    ] virtual/perl-Perl-OSType-1.10.0-r7 
[ebuild   R    ] virtual/perl-Text-ParseWords-3.310.0-r1 
[ebuild   R    ] virtual/perl-podlators-5.10.0 
[ebuild   R    ] virtual/perl-version-0.992.900-r1 
[ebuild   R    ] virtual/perl-CPAN-Meta-YAML-0.18.0-r9 
[ebuild   R    ] virtual/perl-JSON-PP-4.160.0-r1 
[ebuild   R    ] virtual/perl-Parse-CPAN-Meta-2.150.10-r7 
[ebuild   R    ] virtual/perl-Unicode-Collate-1.310.0-r1 
[ebuild   R    ] sys-libs/zlib-1.3-r4 
[ebuild   R    ] app-arch/xz-utils-5.6.1 
[ebuild   R    ] dev-libs/gobject-introspection-common-1.78.1 
[ebuild   R    ] app-portage/elt-patches-20240213 
[ebuild   R    ] media-libs/libpng-1.6.43 
[ebuild   R    ] dev-libs/libunistring-1.1-r1 
[ebuild   R    ] dev-libs/libatomic_ops-7.8.2 
[ebuild   R    ] net-libs/libtirpc-1.3.4-r2 
[ebuild   R    ] dev-libs/boehm-gc-8.2.4 
[ebuild   R    ] net-libs/libnsl-2.0.1 
[ebuild   R    ] x11-libs/libX11-1.8.7 
[ebuild   R    ] x11-misc/shared-mime-info-2.4-r1 
[ebuild   R    ] dev-util/desktop-file-utils-0.27 
[ebuild   R    ] dev-python/setuptools-69.1.1 
[ebuild   R    ] dev-libs/openssl-3.0.13 
[ebuild   R    ] x11-libs/libXext-1.3.6 
[ebuild   R    ] dev-libs/gobject-introspection-1.78.1 
[ebuild   R    ] sys-libs/ncurses-6.4_p20230401 
[ebuild   R    ] sys-libs/readline-8.1_p2-r2 
[ebuild   R    ] dev-libs/libpcre2-10.42-r2 
[ebuild   R    ] sys-libs/gdbm-1.23 
[ebuild   R    ] dev-lang/perl-5.38.2-r2 
[ebuild   R    ] sys-kernel/linux-headers-6.6 
[ebuild   R    ] sys-libs/libseccomp-2.5.5 
[ebuild   R    ] dev-perl/Module-Build-0.423.400 
[ebuild   R    ] dev-perl/Pod-Parser-1.660.0 
[ebuild   R    ] dev-perl/SGMLSpm-1.1-r2 
[ebuild   R    ] dev-perl/TermReadKey-2.380.0-r1 
[ebuild   R    ] dev-perl/YAML-Tiny-1.740.0 
[ebuild   R    ] dev-perl/MIME-Charset-1.13.1 
[ebuild   R    ] dev-perl/Unicode-LineBreak-2019.1.0 
[ebuild   R    ] dev-perl/Text-CharWidth-0.40.0-r2 
[ebuild   R    ] dev-perl/Text-WrapI18N-0.60.0-r2 
[ebuild   R    ] dev-perl/ExtUtils-CChecker-0.110.0 
[ebuild   R    ] dev-perl/XS-Parse-Keyword-0.380.0 
[ebuild   R    ] dev-perl/Syntax-Keyword-Try-0.280.0 
[ebuild   R    ] dev-libs/glib-2.78.3 
[ebuild   R    ] sys-apps/dbus-1.15.8 
[ebuild   R    ] media-libs/libjpeg-turbo-3.0.0 
[ebuild   R    ] media-libs/freetype-2.13.2 
[ebuild   R    ] sys-apps/util-linux-2.39.3-r2 
[ebuild   R    ] x11-libs/libxcb-1.16-r1 
[ebuild   R    ] dev-libs/expat-2.5.0 
[ebuild   R    ] media-libs/fontconfig-2.14.2-r3 
[ebuild   R    ] app-arch/zstd-1.5.5-r1 
[ebuild   R    ] sys-libs/pam-1.5.3-r1 
[ebuild   R    ] x11-libs/libXi-1.8.1 
[ebuild   R    ] x11-libs/libXfixes-6.0.1 
[ebuild   R    ] x11-libs/libXrender-0.9.11 
[ebuild   R    ] app-admin/eselect-1.4.27-r1 
[ebuild   R    ] dev-libs/icu-74.2 
[ebuild   R    ] dev-libs/libxml2-2.12.5  USE="lzma*" 
[ebuild   R    ] x11-libs/libXt-1.3.0 
[ebuild   R    ] x11-libs/libICE-1.1.1-r1 
[ebuild   R    ] sys-apps/attr-2.5.2-r1 
[ebuild   R    ] sys-devel/gettext-0.22.4 
[ebuild   R    ] sys-apps/acl-2.3.2-r1 
[ebuild   R    ] sys-apps/coreutils-9.4-r1 
[ebuild   R    ] sys-devel/binutils-2.41-r5 
[ebuild   R    ] dev-libs/popt-1.19-r1 
[ebuild   R    ] dev-build/make-4.4.1-r1 
[ebuild   R    ] sys-apps/grep-3.11 
[ebuild   R    ] net-dns/libidn2-2.3.7 
[ebuild   R    ] sys-apps/findutils-4.9.0-r2 
[ebuild   R    ] sys-apps/sed-4.9 
[ebuild   R    ] sys-apps/diffutils-3.10 
[ebuild   R    ] sys-libs/libcap-2.69-r1 
[ebuild   R    ] sys-devel/m4-1.4.19-r2 
[ebuild   R    ] dev-libs/gmp-6.3.0-r1 
[ebuild   R    ] dev-libs/mpfr-4.2.1 
[ebuild   R    ] dev-libs/mpc-1.3.1 
[ebuild   R    ] dev-libs/elfutils-0.190  USE="lzma* zstd*" 
[ebuild   R    ] dev-build/autoconf-2.71-r6 
[ebuild   R    ] sys-devel/bison-3.8.2-r2 
[ebuild   R    ] app-shells/bash-5.1_p16-r6 
[ebuild   R    ] sys-apps/texinfo-7.1-r1 
[ebuild   R    ] sys-fs/e2fsprogs-1.47.0-r3 
[ebuild   R    ] sys-apps/gawk-5.3.0-r1 
[ebuild   R    ] sys-devel/flex-2.6.4-r6 
[ebuild   R    ] app-arch/libarchive-3.7.2-r2  USE="zstd*" 
[ebuild   R    ] dev-perl/Locale-gettext-1.70.0-r1 
[ebuild   R    ] sys-apps/help2man-1.49.3 
[ebuild   R    ] dev-build/automake-1.16.5-r2 
[ebuild   R    ] dev-build/libtool-2.4.7-r3 
[ebuild   R    ] dev-libs/libgpg-error-1.47-r1 
[ebuild   R    ] dev-lang/tcl-8.6.13-r1 
[ebuild   R    ] sys-apps/kmod-31 
[ebuild   R    ] sys-libs/gpm-1.20.7-r6 
[ebuild   R    ] sys-apps/file-5.45-r4  USE="lzma* zstd*" 
[ebuild   R    ] x11-libs/xtrans-1.5.0 
[ebuild   R    ] dev-lang/nasm-2.16.01-r1 
[ebuild   R    ] media-fonts/font-util-1.4.1 
[ebuild   R    ] dev-libs/libuv-1.48.0 
[ebuild   R    ] dev-libs/libnatspec-0.3.0 
[ebuild   R    ] app-arch/unzip-6.0_p27-r1 
[ebuild   R    ] dev-db/sqlite-3.45.1-r1 
[ebuild   R    ] app-text/docbook-xml-dtd-4.2-r3 
[ebuild   R    ] app-text/docbook-xml-dtd-4.1.2-r7 
[ebuild   R    ] app-text/docbook-xml-dtd-4.5-r2 
[ebuild   R    ] app-crypt/rhash-1.4.3 
[ebuild   R    ] app-text/docbook-xml-dtd-4.4-r3 
[ebuild   R    ] app-text/opensp-1.5.2-r10 
[ebuild   R    ] x11-libs/libSM-1.2.4 
[ebuild   R    ] dev-libs/libgcrypt-1.10.3-r1 
[ebuild   R    ] dev-libs/libxslt-1.1.39 
[ebuild   R    ] app-text/xmlto-0.0.28-r11 
[ebuild   R    ] app-text/po4a-0.69 
[ebuild   R    ] sys-libs/glibc-2.38-r10 
[ebuild   R    ] sys-devel/gcc-13.2.1_p20240210 
[ebuild   R    ] app-crypt/libb2-0.98.1-r3 
[ebuild   R    ] sys-libs/libxcrypt-4.4.36 
[ebuild   R    ] sys-auth/elogind-246.10-r3 
[ebuild   R    ] app-accessibility/at-spi2-core-2.50.1 
[ebuild   R    ] dev-python/packaging-23.2-r1 
[ebuild   R    ] x11-libs/libXtst-1.2.4 
[ebuild   R    ] dev-lang/tk-8.6.13 
[ebuild   R    ] dev-tcltk/blt-2.5.3-r3 
[ebuild   R    ] dev-lang/python-3.11.8_p1 
[ebuild   R    ] dev-python/tomli-2.0.1-r1 
[ebuild   R    ] dev-util/glib-utils-2.78.3 
[ebuild   R    ] dev-python/installer-0.7.0 
[ebuild   R    ] dev-python/gpep517-15 
[ebuild   R    ] dev-build/meson-1.3.2 
[ebuild   R    ] app-misc/pax-utils-1.3.7 
[ebuild   R    ] x11-base/xorg-proto-2023.2 
[ebuild   R    ] x11-libs/libXau-1.0.11 
[ebuild   R    ] x11-libs/libXdmcp-1.1.4-r2 
[ebuild   R    ] x11-libs/libXft-2.3.8 
[ebuild   R    ] dev-tcltk/tix-8.4.3-r4 
[ebuild   R    ] x11-misc/compose-tables-1.8.7 
[ebuild   R    ] dev-lang/python-3.12.2_p1 
[ebuild   R    ] net-libs/libpsl-0.21.5 
[ebuild   R    ] dev-python/flit-core-3.9.0 
[ebuild   R    ] dev-python/more-itertools-10.2.0 
[ebuild   R    ] dev-python/wheel-0.42.0 
[ebuild   R    ] dev-python/jaraco-context-4.3.0 
[ebuild   R    ] dev-python/jaraco-functools-4.0.0 
[ebuild   R    ] dev-python/jaraco-text-3.12.0 
[ebuild   R    ] dev-python/nspektr-0.5.0 
[ebuild   R    ] dev-python/ordered-set-4.1.0 
[ebuild   R    ] dev-python/platformdirs-4.2.0 
[ebuild   R    ] dev-python/cython-3.0.9 
[ebuild   R    ] x11-libs/libfontenc-1.1.7 
[ebuild   R    ] x11-apps/mkfontscale-1.2.2 
[ebuild   R    ] media-fonts/encodings-1.0.7 
[ebuild   R    ] media-fonts/liberation-fonts-2.1.5 
[ebuild   R    ] dev-build/ninja-1.11.1-r5 
[ebuild   R    ] dev-python/lxml-5.1.0 
[ebuild   R    ] dev-python/markupsafe-2.1.5 
[ebuild   R    ] dev-python/jinja-3.1.3 
[ebuild   R    ] sys-apps/systemd-utils-254.8 
[ebuild   R    ] dev-libs/jsoncpp-1.9.5 
[ebuild   R    ] x11-base/xcb-proto-1.16.0 
[ebuild   R    ] www-client/w3m-0.5.3_p20230121 
[ebuild   R    ] net-libs/nghttp2-1.57.0 
[ebuild   R    ] net-misc/curl-8.6.0-r1  USE="zstd*" 
[ebuild   R    ] dev-build/cmake-3.28.3 
[ebuild   R    ] media-libs/tiff-4.6.0  USE="lzma* zstd*" 
[ebuild   R    ] virtual/udev-217-r7 
[ebuild   R    ] x11-libs/libXrandr-1.5.4 
[ebuild   R    ] virtual/tmpfiles-0-r5 
[ebuild   R    ] media-libs/libglvnd-1.7.0 
[ebuild   R    ] app-misc/ca-certificates-20230311.3.97 
[ebuild   R    ] x11-libs/libXcursor-1.2.1 
[ebuild   R    ] x11-libs/libXmu-1.1.4 
[ebuild   R    ] x11-libs/libXcomposite-0.4.6 
[ebuild   R    ] x11-libs/libXdamage-1.1.6 
[ebuild   R    ] dev-libs/fribidi-1.0.13 
[ebuild   R    ] x11-libs/libxshmfence-1.3.2 
[ebuild   R    ] app-eselect/eselect-lib-bin-symlink-0.1.1-r1 
[ebuild   R    ] dev-libs/nettle-3.9.1 
[ebuild   R    ] x11-misc/xkeyboard-config-2.41 
[ebuild   R    ] x11-libs/libXxf86vm-1.1.5 
[ebuild   R    ] virtual/perl-MIME-Base64-3.160.100_rc 
[ebuild   R    ] dev-perl/Encode-Locale-1.50.0-r1 
[ebuild   R    ] x11-libs/xcb-util-0.4.1 
[ebuild   R    ] x11-themes/hicolor-icon-theme-0.17 
[ebuild   R    ] x11-libs/pixman-0.43.2 
[ebuild   R    ] dev-util/vulkan-headers-1.3.275 
[ebuild   R    ] x11-libs/xcb-util-keysyms-0.4.1 
[ebuild   R    ] dev-libs/libassuan-2.5.6 
[ebuild   R    ] dev-libs/libbsd-0.11.8 
[ebuild   R    ] virtual/perl-parent-0.241.0 
[ebuild   R    ] dev-libs/libtasn1-4.19.0 
[ebuild   R    ] dev-libs/double-conversion-3.2.1 
[ebuild   R    ] sys-devel/gcc-config-2.11 
[ebuild   R    ] sys-devel/patch-2.7.6-r5 
[ebuild   R    ] net-misc/rsync-3.2.7-r4  USE="zstd*" 
[ebuild   R    ] sys-apps/less-643-r1 
[ebuild   R    ] sys-process/psmisc-23.6 
[ebuild   R    ] app-editors/nano-7.2-r1 
[ebuild   R    ] dev-python/typing-extensions-4.10.0 
[ebuild   R    ] dev-perl/Regexp-IPv6-0.30.0-r2 
[ebuild   R    ] sys-auth/passwdqc-2.0.3-r1 
[ebuild   R    ] media-gfx/graphite2-1.3.14_p20210810-r3 
[ebuild   R    ] x11-libs/xcb-util-renderutil-0.3.10 
[ebuild   R    ] x11-libs/xcb-util-wm-0.4.2 
[ebuild   R    ] dev-libs/libevdev-1.13.1 
[ebuild   R    ] sys-libs/mtdev-1.1.6 
[ebuild   R    ] dev-libs/libksba-1.6.6 
[ebuild   R    ] dev-libs/npth-1.6-r1 
[ebuild   R    ] x11-libs/libXpm-3.5.17 
[ebuild   R    ] x11-apps/xprop-1.2.7 
[ebuild   R    ] dev-perl/IPC-System-Simple-1.300.0 
[ebuild   R    ] sys-apps/sandbox-2.38 
[ebuild   R    ] dev-python/charset-normalizer-3.3.2 
[ebuild   R    ] dev-python/idna-3.6 
[ebuild   R    ] dev-python/PySocks-1.7.1-r2 
[ebuild   R    ] dev-python/ply-3.11-r2 
[ebuild   R    ] sys-apps/sysvinit-3.08 
[ebuild   R    ] app-eselect/eselect-iptables-20220320 
[ebuild   R    ] dev-libs/libusb-1.0.26 
[ebuild   R    ] perl-core/File-Temp-0.231.100 
[ebuild   R    ] virtual/perl-File-Path-2.180.0-r2 
[ebuild   R    ] virtual/perl-CPAN-2.360.0 
[ebuild   R    ] virtual/perl-Math-BigInt-FastCalc-0.501.300 
[ebuild   R    ] virtual/perl-bignum-0.660.0 
[ebuild   R    ] virtual/perl-Math-BigRat-0.262.400 
[ebuild   R    ] virtual/perl-Math-Complex-1.620.0 
[ebuild   R    ] app-alternatives/sh-0 
[ebuild   R    ] net-misc/wget-1.21.4 
[ebuild   R    ] sys-apps/kbd-2.6.4 
[ebuild   R    ] sys-apps/net-tools-2.10 
[ebuild   R    ] sys-process/procps-3.3.17-r2 
[ebuild   R    ] virtual/libc-1-r1 
[ebuild   R    ] media-libs/alsa-lib-1.2.10-r2 
[ebuild   R    ] dev-util/gdbus-codegen-2.78.3 
[ebuild   R    ] dev-build/gtk-doc-am-1.33.2 
[ebuild   R    ] dev-libs/libgudev-238-r1 
[ebuild   R    ] x11-libs/libxkbfile-1.1.3 
[ebuild   R    ] dev-libs/boost-1.84.0-r3  USE="lzma* zstd*" 
[ebuild   R    ] dev-libs/libsigc++-2.12.0 
[ebuild   R    ] virtual/perl-IO-1.520.0 
[ebuild   R    ] app-text/docbook-xml-dtd-4.3-r2 
[ebuild   R    ] dev-python/dbus-python-1.3.2 
[ebuild   R    ] dev-libs/json-glib-1.8.0 
[ebuild   R    ] gnome-base/gsettings-desktop-schemas-45.0 
[ebuild   R    ] media-libs/libvorbis-1.3.7-r1 
[ebuild   R    ] dev-libs/libltdl-2.4.7-r1 
[ebuild   R    ] virtual/perl-Time-Local-1.300.0-r2 
[ebuild   R    ] media-libs/flac-1.4.3 
[ebuild   R    ] dev-libs/nspr-4.35-r2 
[ebuild   R    ] media-libs/libexif-0.6.24 
[ebuild   R    ] dev-libs/json-c-0.17 
[ebuild   R    ] dev-util/wayland-scanner-1.22.0 
[ebuild   R    ] dev-libs/apr-1.7.4 
[ebuild   R    ] x11-libs/libXv-1.0.12 
[ebuild   R    ] dev-lang/yasm-1.3.0-r1 
[ebuild   R    ] app-text/aspell-0.60.8.1 
[ebuild   R    ] virtual/perl-Digest-MD5-2.580.100_rc 
[ebuild   R    ] dev-perl/LWP-MediaTypes-6.40.0 
[ebuild   R    ] dev-perl/TimeDate-2.330.0-r1 
[ebuild   R    ] x11-libs/libXres-1.2.2 
[ebuild   R    ] dev-libs/vala-common-0.56.14 
[ebuild   R    ] app-text/docbook-xsl-ns-stylesheets-1.79.1 
[ebuild   R    ] app-arch/brotli-1.1.0 
[ebuild   R    ] net-libs/libasyncns-0.8-r4 
[ebuild   R    ] media-sound/lame-3.100-r3 
[ebuild   R    ] media-fonts/dejavu-2.37 
[ebuild   R    ] x11-libs/libXinerama-1.1.5 
[ebuild   R    ] app-text/iso-codes-4.15.0 
[ebuild   R    ] x11-apps/iceauth-1.0.9 
[ebuild   R    ] dev-libs/libcdio-2.1.0-r1 
[ebuild   R    ] sys-block/parted-3.6-r1 
[ebuild   R    ] x11-libs/libpciaccess-0.18 
[ebuild   R    ] x11-libs/libxcvt-0.1.2 
[ebuild   R    ] x11-libs/libXfont2-2.0.6-r1 
[ebuild   R    ] media-libs/openh264-2.4.1 
[ebuild   R    ] dev-python/sip-6.8.3 
[ebuild   R    ] media-libs/jbig2dec-0.19 
[ebuild   R    ] net-dns/libidn-1.42 
[ebuild   R    ] media-fonts/urw-fonts-20230503-r1 
[ebuild   R    ] dev-libs/libpcre-8.45-r3 
[ebuild   R    ] dev-libs/libsodium-1.0.19-r2 
[ebuild   R    ] media-libs/x264-0.0.20231114-r1 
[ebuild   R    ] media-libs/dav1d-1.3.0 
[ebuild   R    ] media-gfx/potrace-1.16 
[ebuild   R    ] virtual/fortran-0-r1 
[ebuild   R    ] virtual/jpeg-100-r1 
[ebuild   R    ] virtual/perl-XSLoader-0.320.0 
[ebuild   R    ] virtual/perl-Compress-Raw-Bzip2-2.204.1_rc 
[ebuild   R    ] app-text/hunspell-1.7.2 
[ebuild   R    ] sys-apps/pciutils-3.10.0 
[ebuild   R    ] dev-perl/Socket6-0.290.0 
[ebuild   R    ] dev-perl/Clone-0.460.0 
[ebuild   R    ] dev-perl/IO-HTML-1.4.0 
[ebuild   R    ] dev-perl/HTML-Tagset-3.200.0-r2 
[ebuild   R    ] dev-python/editables-0.5 
[ebuild   R    ] dev-python/pathspec-0.12.1 
[ebuild   R    ] dev-python/trove-classifiers-2024.3.3 
[ebuild   R    ] net-libs/libproxy-0.5.3 
[ebuild   R    ] media-libs/opus-1.4 
[ebuild   R    ] dev-libs/libisofs-1.5.6_p1 
[ebuild   R    ] dev-libs/libatasmart-0.19_p5 
[ebuild   R    ] dev-libs/libbytesize-2.10 
[ebuild   R    ] sys-fs/lvm2-2.03.22-r3 
[ebuild   R    ] x11-apps/rgb-1.1.0 
[ebuild   R    ] media-fonts/font-alias-1.0.5 
[ebuild   R    ] x11-apps/fonttosfnt-1.2.3 
[ebuild   R    ] x11-apps/bdftopcf-1.1.1 
[ebuild   R    ] x11-misc/xbitmaps-1.1.3 
[ebuild   R    ] gui-libs/display-manager-init-1.1.2 
[ebuild   R    ] dev-build/gn-0.2143 
[ebuild   R    ] sys-libs/binutils-libs-2.41-r5  USE="cet*" 
[ebuild   R    ] sys-libs/libomp-17.0.6 
[ebuild   R    ] app-eselect/eselect-rust-20210703 
[ebuild   R    ] sys-apps/lsb-release-3.3 
[ebuild   R    ] sys-apps/debianutils-5.14-r1 
[ebuild   R    ] dev-libs/libical-3.0.17 
[ebuild   R    ] dev-python/distro-1.9.0 
[ebuild   R    ] dev-python/PyQt5-sip-12.13.0-r1 
[ebuild   R    ] dev-libs/libdaemon-0.14-r4 
[ebuild   R    ] dev-libs/libevent-2.1.12-r1 
[ebuild   R    ] dev-libs/gumbo-0.12.1 
[ebuild   R    ] dev-lang/mujs-1.3.4 
[ebuild   R    ] app-text/qpdf-11.7.0 
[ebuild   R    ] dev-libs/libtommath-1.2.1 
[ebuild   R    ] net-libs/libssh-0.10.6 
[ebuild   R    ] net-libs/libvncserver-0.9.14-r2 
[ebuild   R    ] dev-libs/libedit-20221030.3.1 
[ebuild   R    ] dev-libs/pugixml-1.14 
[ebuild   R    ] app-eselect/eselect-wxwidgets-20230114-r1 
[ebuild   R    ] sys-libs/libcap-ng-0.8.4-r1 
[ebuild   R    ] net-libs/libsmi-0.5.0-r5 
[ebuild   R    ] app-eselect/eselect-lua-4-r1 
[ebuild   R    ] media-libs/a52dec-0.7.4-r8 
[ebuild   R    ] media-libs/libdca-0.0.7 
[ebuild   R    ] media-libs/libdvdnav-6.1.1 
[ebuild   R    ] media-libs/libmad-0.15.1b-r10 
[ebuild   R    ] media-libs/x265-3.5-r3 
[ebuild   R    ] dev-libs/libbpf-0.8.1 
[ebuild   R    ] dev-libs/atk-2.46.0 
[ebuild   R    ] dev-util/spirv-headers-1.3.275 
[ebuild   R    ] media-libs/libde265-1.0.11 
[ebuild   R    ] media-libs/libid3tag-0.16.3 
[ebuild   R    ] dev-libs/protobuf-21.12 
[ebuild   R    ] dev-cpp/eigen-3.4.0-r1 
[ebuild   R    ] dev-python/pyproject-metadata-0.7.1 
[ebuild   R    ] dev-util/patchelf-0.18.0 
[ebuild   R    ] dev-libs/inih-58 
[ebuild   R    ] sci-libs/gsl-2.7.1-r2 
[ebuild   R    ] dev-python/appdirs-1.4.4-r3 
[ebuild   R    ] dev-python/cssselect-1.2.0 
[ebuild   R    ] dev-python/six-1.16.0-r1 
[ebuild   R    ] dev-python/olefile-0.47 
[ebuild   R    ] dev-python/pbr-6.0.0 
[ebuild   R    ] dev-python/msgpack-1.0.8 
[ebuild   R    ] media-gfx/mypaint-brushes-2.0.2-r1 
[ebuild   R    ] dev-libs/libyaml-0.2.5 
[ebuild   R    ] dev-libs/libmspack-0.10.1_alpha-r1 
[ebuild   R    ] dev-perl/Error-0.170.290 
[ebuild   R    ] dev-util/shadowman-3 
[ebuild   R    ] dev-java/javatoolkit-0.6.7 
[ebuild   R    ] dev-libs/libserialport-0.1.1-r1 
[ebuild   R    ] dev-util/itstool-2.0.7-r1 
[ebuild   R    ] dev-util/dialog-1.3.20240101 
[ebuild   R    ] net-analyzer/netselect-0.4-r2 
[ebuild   R    ] app-eselect/eselect-vi-20221122 
[ebuild   R    ] app-editors/vim-core-9.0.2167 
[ebuild   R    ] virtual/perl-Storable-3.320.0 
[ebuild   R    ] app-eselect/eselect-java-0.5.0 
[ebuild   R    ] virtual/perl-Digest-SHA-6.40.0 
[ebuild   R    ] dev-python/mako-1.3.2 
[ebuild   R    ] x11-libs/libXScrnSaver-1.2.4 
[ebuild   R    ] media-libs/speexdsp-1.2.1 
[ebuild   R    ] dev-lang/orc-0.4.33 
[ebuild   R    ] dev-cpp/abseil-cpp-20230125.2 
[ebuild   R    ] perl-core/Compress-Raw-Zlib-2.206.0 
[ebuild   R    ] virtual/perl-IO-Socket-IP-0.410.100_rc 
[ebuild   R    ] virtual/perl-Module-Load-0.360.0-r3 
[ebuild   R    ] app-crypt/easy-rsa-3.1.2 
[ebuild   R    ] app-text/barcode-0.99-r1 
[ebuild   R    ] dev-python/pip-24.0 
[ebuild   R    ] media-fonts/croscorefonts-1.31.0 
[ebuild   R    ] media-gfx/qrencode-4.1.1 
[ebuild   R    ] media-libs/exiftool-12.76 
[ebuild   R    ] net-ftp/ftp-0.17.34.0.2.5.1 
[ebuild   R    ] net-misc/whois-5.5.20 
[ebuild   R    ] sys-apps/ethtool-6.7 
[ebuild   R    ] sys-apps/mlocate-0.26-r3 
[ebuild   R    ] sys-boot/grub-2.12-r2 
[ebuild   R    ] sys-fs/fuse-2.9.9-r2 
[ebuild   R    ] dev-qt/qtcore-5.15.12-r2 
[ebuild   R    ] x11-libs/cairo-1.18.0 
[ebuild   R    ] virtual/libusb-1-r2 
[ebuild   R    ] net-libs/gnutls-3.8.0  USE="zstd*" 
[ebuild   R    ] sys-auth/pambase-20240128 
[ebuild   R    ] virtual/perl-File-Temp-0.231.100 
[ebuild   R    ] x11-libs/libxkbcommon-1.6.0 
[ebuild   R    ] x11-libs/libXaw-1.0.15-r1 
[ebuild   R    ] dev-python/setuptools-scm-8.0.4 
[ebuild   R    ] dev-libs/libinput-1.25.0 
[ebuild   R    ] app-crypt/p11-kit-0.25.0-r1 
[ebuild   R    ] app-eselect/eselect-pinentry-0.7.3 
[ebuild   R    ] dev-perl/File-BaseDir-0.90.0 
[ebuild   R    ] virtual/editor-0-r7 
[ebuild   R    ] net-misc/dhcpcd-10.0.6-r2 
[ebuild   R    ] dev-perl/Mozilla-CA-20999999-r1 
[ebuild   R    ] dev-perl/Net-SSLeay-1.920.0-r1 
[ebuild   R    ] gnome-base/dconf-0.40.0 
[ebuild   R    ] x11-libs/xcb-util-image-0.4.1 
[ebuild   R    ] x11-apps/xset-1.2.5 
[ebuild   R    ] dev-python/certifi-3021.3.16-r4 
[ebuild   R    ] dev-python/pycparser-2.21-r2 
[ebuild   R    ] net-firewall/iptables-1.8.10 
[ebuild   R    ] sys-fs/udev-init-scripts-35 
[ebuild   R    ] perl-core/Math-BigInt-1.999.842 
[ebuild   R    ] net-misc/iputils-20240117 
[ebuild   R    ] virtual/dev-manager-0-r2 
[ebuild   R    ] virtual/pager-0-r1 
[ebuild   R    ] dev-lang/vala-0.56.14 
[ebuild   R    ] media-libs/lcms-2.15 
[ebuild   R    ] dev-perl/HTTP-Date-6.60.0 
[ebuild   R    ] dev-libs/dbus-glib-0.112 
[ebuild   R    ] dev-cpp/glibmm-2.66.6 
[ebuild   R    ] dev-libs/librevenge-0.0.5 
[ebuild   R    ] x11-libs/startup-notification-0.12-r2 
[ebuild   R    ] x11-apps/xkbcomp-1.4.7 
[ebuild   R    ] dev-libs/nss-3.91 
[ebuild   R    ] virtual/perl-Compress-Raw-Zlib-2.206.0 
[ebuild   R    ] sys-power/upower-0.99.20 
[ebuild   R    ] x11-apps/xrdb-1.2.2 
[ebuild   R    ] x11-apps/xauth-1.1.2 
[ebuild   R    ] dev-libs/apr-util-1.6.3 
[ebuild   R    ] dev-lang/rust-1.75.0-r1 
[ebuild   R    ] media-libs/vulkan-loader-1.3.275 
[ebuild   R    ] media-libs/libv4l-1.22.1 
[ebuild   R    ] media-gfx/exiv2-0.28.1-r2 
[ebuild   R    ] sci-libs/lapack-3.12.0-r1 
[ebuild   R    ] dev-perl/IO-Socket-INET6-2.730.0 
[ebuild   R    ] app-eselect/eselect-notify-send-0.1 
[ebuild   R    ] app-eselect/eselect-mpg123-0.1-r1 
[ebuild   R    ] x11-libs/libXpresent-1.0.1 
[ebuild   R    ] app-eselect/eselect-cdparanoia-0.1-r1 
[ebuild   R    ] sys-fs/cryptsetup-2.6.1 
[ebuild   R    ] media-fonts/font-misc-misc-1.1.3 
[ebuild   R    ] dev-libs/wayland-1.22.0 
[ebuild   R    ] dev-libs/wayland-protocols-1.33 
[ebuild   R    ] net-libs/nodejs-20.11.0 
[ebuild   R    ] net-analyzer/net-snmp-5.9.3-r3 
[ebuild   R    ] dev-python/notify2-0.3.1-r3 
[ebuild   R    ] dev-python/PyQt-builder-1.15.4 
[ebuild   R    ] dev-libs/libtomcrypt-1.18.2-r4 
[ebuild   R    ] dev-lang/lua-5.4.6 
[ebuild   R    ] media-libs/portaudio-19.07.00-r2 
[ebuild   R    ] media-libs/xvid-1.3.7-r1 
[ebuild   R    ] dev-util/spirv-tools-1.3.275 
[ebuild   R    ] media-libs/libaom-3.7.0-r2 
[ebuild   R    ] dev-python/meson-python-0.15.0 
[ebuild   R    ] dev-python/lockfile-0.12.2-r3 
[ebuild   R    ] media-gfx/scour-0.38.2-r1 
[ebuild   R    ] app-arch/cabextract-1.11 
[ebuild   R    ] dev-perl/Digest-HMAC-1.40.0 
[ebuild   R    ] dev-perl/Date-Manip-6.920.0 
[ebuild   R    ] media-libs/glu-9.0.3 
[ebuild   R    ] media-libs/webrtc-audio-processing-1.3-r3 
[ebuild   R    ] dev-perl/Sub-Name-0.270.0 
[ebuild   R    ] app-dicts/aspell-en-2020.12.07.0-r1 
[ebuild   R    ] app-portage/eix-0.36.7 
[ebuild   R    ] dev-util/ccache-4.9.1 
[ebuild   R    ] media-sound/alsa-utils-1.2.10-r1 
[ebuild   R    ] sys-process/cronie-1.7.1-r1 
[ebuild   R    ] media-libs/harfbuzz-8.3.0 
[ebuild   R    ] dev-qt/qtdbus-5.15.12 
[ebuild   R    ] sys-apps/groff-1.23.0 
[ebuild   R    ] dev-perl/IO-Socket-SSL-2.83.0 
[ebuild   R    ] sys-apps/shadow-4.14.2 
[ebuild   R    ] dev-python/cffi-1.16.0 
[ebuild   R    ] virtual/perl-Math-BigInt-1.999.842 
[ebuild   R    ] sys-apps/iproute2-6.6.0-r3 
[ebuild   R    ] dev-qt/qtxml-5.15.12 
[ebuild   R    ] dev-qt/qtnetwork-5.15.12-r1 
[ebuild   R    ] dev-qt/qtconcurrent-5.15.12 
[ebuild   R    ] virtual/glu-9.0-r2 
[ebuild   R    ] net-libs/glib-networking-2.78.0 
[ebuild   R    ] media-libs/openjpeg-2.5.0-r6 
[ebuild   R    ] dev-cpp/cairomm-1.14.4 
[ebuild   R    ] media-sound/mpg123-base-1.32.3 
[ebuild   R    ] x11-libs/libxklavier-5.4-r1 
[ebuild   R    ] dev-python/pycairo-1.26.0 
[ebuild   R    ] media-libs/libmng-2.0.3-r1 
[ebuild   R    ] media-libs/babl-0.1.106 
[ebuild   R    ] sys-apps/baselayout-java-0.1.0-r2 
[ebuild   R    ] virtual/perl-IO-Compress-2.204.0 
[ebuild   R    ] dev-perl/Devel-CheckLib-1.160.0 
[ebuild   R    ] dev-perl/File-Listing-6.160.0 
[ebuild   R    ] dev-perl/Try-Tiny-0.310.0 
[ebuild   R    ] dev-python/pluggy-1.4.0 
[ebuild   R    ] dev-libs/libcdio-paranoia-2.0.1 
[ebuild   R    ] sys-libs/libblockdev-2.28-r1 
[ebuild   R    ] x11-apps/xmessage-1.0.6 
[ebuild   R    ] x11-apps/xinit-1.4.2 
[ebuild   R    ] app-admin/apache-tools-2.4.58 
[ebuild   R    ] dev-libs/libfilezilla-0.45.0 
[ebuild   R    ] dev-cpp/atkmm-2.28.3 
[ebuild   R    ] dev-util/glslang-1.3.275 
[ebuild   R    ] dev-qt/qttest-5.15.12 
[ebuild   R    ] media-libs/libcdr-0.1.7 
[ebuild   R    ] app-text/libwpd-0.10.3 
[ebuild   R    ] media-libs/gexiv2-0.14.2 
[ebuild   R    ] dev-perl/Authen-SASL-2.170.0 
[ebuild   R    ] dev-perl/File-Slurp-9999.320.0 
[ebuild   R    ] dev-libs/hidapi-0.13.1-r1 
[ebuild   R    ] dev-qt/qtsql-5.15.12 
[ebuild   R    ] dev-libs/libusb-compat-0.1.8 
[ebuild   R    ] virtual/cblas-3.8 
[ebuild   R    ] virtual/lapack-3.10 
[ebuild   R    ] virtual/rust-1.75.0 
[ebuild   R    ] media-fonts/corefonts-1-r7 
[ebuild   R    ] media-libs/libheif-1.15.2 
[ebuild   R    ] net-misc/chrony-4.5 
[ebuild   R    ] sys-apps/usbutils-017 
[ebuild   R    ] x11-libs/pango-1.51.0 
[ebuild   R    ] virtual/perl-libnet-3.150.0 
[ebuild  N     ] dev-python/zstandard-0.22.0  USE="-debug -test" PYTHON_TARGETS="python3_11 (-pypy3) -python3_10 -python3_12" 
[ebuild   R    ] sys-apps/man-db-2.12.0 
[ebuild   R    ] net-misc/openssh-9.6_p1-r3 
[ebuild   R    ] app-text/enchant-2.5.0 
[ebuild   R    ] dev-python/hatchling-1.21.1 
[ebuild   R    ] dev-python/pygobject-3.46.0 
[ebuild   R    ] www-servers/apache-2.4.58-r2 
[ebuild   R    ] net-libs/libsoup-3.4.4 
[ebuild   R    ] media-libs/libsndfile-1.2.2-r2 
[ebuild   R    ] dev-qt/linguist-tools-5.15.12 
[ebuild   R    ] dev-python/numpy-1.26.4 
[ebuild   R    ] x11-apps/luit-20240102 
[ebuild   R    ] dev-python/pycryptodome-3.20.0 
[ebuild   R    ] net-libs/libsoup-2.74.3 
[ebuild   R    ] app-text/libwpg-0.3.4 
[ebuild   R    ] mail-mta/nullmailer-2.2-r2 
[ebuild   R    ] virtual/libusb-0-r2 
[ebuild   R    ] dev-util/xxdi-1.0.0 
[ebuild   R    ] sys-process/lsof-4.99.3 
[ebuild   R    ] dev-perl/URI-5.210.0 
[ebuild   R    ] virtual/openssh-0 
[ebuild   R    ] dev-python/urllib3-2.2.1  USE="zstd*" 
[ebuild   R    ] virtual/man-0-r4 
[ebuild   R    ] dev-cpp/pangomm-2.46.3 
[ebuild   R    ] virtual/mta-1-r2 
[ebuild   R    ] dev-python/pygments-2.17.2 
[ebuild   R    ] dev-perl/MailTools-2.210.0 
[ebuild   R    ] app-eselect/eselect-php-0.9.9 
[ebuild   R    ] dev-embedded/avrdude-7.0 
[ebuild   R    ] net-misc/yt-dlp-2024.03.10 
[ebuild   R    ] x11-terms/xterm-388 
[ebuild   R    ] dev-python/requests-2.31.0 
[ebuild   R    ] dev-perl/File-DesktopEntry-0.220.0-r1 
[ebuild   R    ] virtual/ssh-0-r2 
[ebuild   R    ] dev-perl/HTTP-Message-6.450.0 
[ebuild   R    ] dev-python/docutils-0.20.1-r1 
[ebuild   R    ] dev-perl/Net-HTTP-6.230.0 
[ebuild   R    ] dev-perl/WWW-RobotRules-6.20.0-r2 
[ebuild   R    ] dev-perl/Mozilla-PublicSuffix-1.0.6 
[ebuild   R    ] app-admin/sudo-1.9.15_p5 
[ebuild   R    ] dev-lang/php-8.2.15 
[ebuild   R    ] x11-libs/gdk-pixbuf-2.42.10-r1 
[ebuild   R    ] x11-libs/libdrm-2.4.120 
[ebuild   R    ] dev-perl/File-MimeInfo-0.330.0 
[ebuild   R    ] dev-perl/HTML-Parser-3.810.0 
[ebuild   R    ] dev-perl/HTTP-CookieJar-0.14.0 
[ebuild   R    ] dev-perl/HTTP-Cookies-6.100.0 
[ebuild   R    ] dev-perl/HTTP-Negotiate-6.10.0-r2 
[ebuild   R    ] dev-python/cachecontrol-0.14.0 
[ebuild   R    ] dev-python/ssl-fetch-0.4-r1 
[ebuild   R    ] gnome-base/librsvg-2.57.0 
[ebuild   R    ] dev-util/gtk-update-icon-cache-3.24.39 
[ebuild   R    ] x11-misc/xdg-utils-1.1.3_p20210805-r2 
[ebuild   R    ] dev-libs/appstream-glib-0.8.2 
[ebuild   R    ] app-portage/mirrorselect-2.4.0 
[ebuild   R    ] net-print/cups-2.4.7-r2 
[ebuild   R    ] dev-qt/qtgui-5.15.12-r2 
[ebuild   R    ] media-gfx/imagemagick-7.1.1.25  USE="lzma*" 
[ebuild   R    ] dev-qt/qtx11extras-5.15.12 
[ebuild   R    ] app-text/poppler-24.02.0 
[ebuild   R    ] net-wireless/bluez-5.72 
[ebuild   R    ] dev-python/pycups-2.0.1-r1 
[ebuild   R    ] net-libs/libpcap-1.10.4 
[ebuild   R    ] dev-qt/qtbluetooth-5.15.12 
[ebuild   R    ] net-analyzer/nmap-7.94 
[ebuild   R    ] net-analyzer/tcpdump-4.99.4-r1 
[ebuild   R    ] sys-auth/polkit-123 
[ebuild   R    ] sys-fs/udisks-2.9.4-r3 
[ebuild   R    ] net-print/cups-pk-helper-0.2.7-r1 
[ebuild   R    ] app-crypt/gnupg-2.4.4-r1 
[ebuild   R    ] app-portage/getuto-1.10.2 
[ebuild   R    ] app-portage/gemato-20.5 
[ebuild   R    ] app-crypt/gpgme-1.23.2 
[ebuild   R    ] dev-vcs/git-2.43.2 
[ebuild   R    ] app-portage/portage-utils-0.96.1 
[ebuild   R    ] sys-devel/llvm-17.0.6  USE="zstd*" 
[ebuild   R    ] media-libs/mesa-23.3.6 
[ebuild   R    ] sys-devel/llvm-toolchain-symlinks-17 
[ebuild   R    ] sys-devel/llvmgold-17 
[ebuild   R    ] media-libs/libepoxy-1.5.10-r2 
[ebuild   R    ] virtual/opengl-7.0-r2 
[ebuild   R    ] media-libs/libsdl2-2.28.5 
[ebuild   R    ] x11-base/xorg-server-21.1.11 
[ebuild   R    ] media-libs/freeglut-3.4.0 
[ebuild   R    ] x11-base/xwayland-23.2.4 
[ebuild   R    ] media-video/ffmpeg-6.0.1-r4  USE="lzma*" 
[ebuild   R    ] media-libs/libwebp-1.3.2 
[ebuild   R    ] x11-drivers/xf86-input-libinput-1.4.0 
[ebuild   R    ] app-text/mupdf-1.23.7-r1 
[ebuild   R    ] media-libs/libsdl-1.2.68 
[ebuild   R    ] x11-drivers/xf86-video-ati-22.0.0 
[ebuild   R    ] net-misc/freerdp-2.11.5-r2 
[ebuild   R    ] media-libs/libmpeg2-0.5.1-r3 
[ebuild   R    ] media-libs/imlib2-1.9.1-r1  USE="lzma*" 
[ebuild   R    ] dev-qt/qtimageformats-5.15.12 
[ebuild   R    ] dev-python/pillow-10.2.0-r1 
[ebuild   R    ] media-libs/gegl-0.4.46 
[ebuild   R    ] media-gfx/scrot-1.10 
[ebuild   R    ] x11-libs/gtk+-3.24.39 
[ebuild   R    ] dev-qt/qtwidgets-5.15.12-r1 
[ebuild   R    ] x11-themes/adwaita-icon-theme-45.0 
[ebuild   R    ] x11-libs/libwnck-43.0-r1 
[ebuild   R    ] app-text/ghostscript-gpl-10.02.1 
[ebuild   R    ] app-text/gspell-1.12.2 
[ebuild   R    ] dev-cpp/gtkmm-3.24.8 
[ebuild   R    ] dev-libs/keybinder-0.3.2-r300 
[ebuild   R    ] gui-libs/vte-common-0.74.2 
[ebuild   R    ] dev-libs/ayatana-ido-0.9.3 
[ebuild   R    ] gui-libs/libhandy-1.8.2 
[ebuild   R    ] x11-libs/gtksourceview-4.8.4 
[ebuild   R    ] x11-misc/notification-daemon-3.20.0-r1 
[ebuild   R    ] dev-qt/qtsvg-5.15.12 
[ebuild   R    ] virtual/freedesktop-icon-theme-0-r4 
[ebuild   R    ] x11-libs/vte-0.74.2 
[ebuild   R    ] dev-qt/qtopengl-5.15.12 
[ebuild   R    ] dev-qt/qtprintsupport-5.15.12 
[ebuild   R    ] net-print/libcupsfilters-2.0.0-r3 
[ebuild   R    ] dev-qt/qtmultimedia-5.15.12 
[ebuild   R    ] dev-libs/libayatana-indicator-0.9.3 
[ebuild   R    ] virtual/notification-daemon-0 
[ebuild   R    ] media-gfx/inkscape-1.3.2-r1 
[ebuild   R    ] www-client/google-chrome-123.0.6312.58 
[ebuild   R    ] x11-libs/libnotify-0.8.3 
[ebuild   R    ] net-print/libppd-2.0.0 
[ebuild   R    ] dev-python/PyQt5-5.15.10-r1 
[ebuild   R    ] media-libs/opencv-4.8.1-r1 
[ebuild   R    ] app-text/qpdfview-0.5 
[ebuild   R    ] net-print/cups-filters-2.0.0 
[ebuild   R    ] x11-libs/wxGTK-3.2.2.1-r3 
[ebuild   R    ] media-gfx/nomacs-3.16.224-r6 
[ebuild   R    ] media-video/vlc-3.0.20-r5 
[ebuild   R    ] net-print/cups-browsed-2.0.0 
[ebuild   R    ] net-ftp/filezilla-3.66.4 
[ebuild   R    ] net-print/cups-meta-1 
[ebuild   R    ] app-arch/tar-1.35 
[ebuild   R    ] sys-apps/portage-3.0.61-r1 
[ebuild   R    ] app-alternatives/tar-0 
[ebuild   R    ] app-admin/perl-cleaner-2.31 
[ebuild   R    ] virtual/package-manager-1 
[ebuild   R    ] dev-java/java-config-2.3.3-r1 
[ebuild   R    ] sys-devel/crossdev-20240209 
[ebuild   R    ] app-portage/gentoolkit-0.6.3-r1 
[ebuild   R    ] dev-embedded/arduino-builder-1.5.4-r1 
[ebuild   R    ] dev-java/openjdk-bin-17.0.8.1_p1 
[ebuild   R    ] virtual/jdk-17 
[ebuild   R    ] virtual/jre-17 
[ebuild   R    ] dev-util/astyle-3.1-r2 
[ebuild   R    ] dev-embedded/arduino-listserialportsc-1.4.0-r1 
[ebuild   R    ] dev-java/ant-1.10.14-r3 
[ebuild   R    ] dev-embedded/arduino-1.8.19 
[ebuild   R    ] sys-apps/openrc-0.53 
[ebuild   R    ] net-misc/netifrc-0.7.7 
[ebuild   R    ] virtual/service-manager-1-r1 
[ebuild   R    ] app-crypt/libsecret-0.21.1 
[ebuild   R    ] app-crypt/gcr-3.41.1-r2 
[ebuild   R    ] app-crypt/pinentry-1.2.1-r4 
[ebuild   R    ] gnome-base/gnome-keyring-42.1-r2 
[ebuild   R    ] gnome-base/gvfs-1.52.1 
[ebuild   R    ] virtual/secret-service-0 
[ebuild   R    ] app-text/evince-45.0 
[ebuild   R    ] dev-perl/libwww-perl-6.720.0-r1 
[ebuild   R    ] dev-perl/XML-Parser-2.460.0-r2 
[ebuild   R    ] dev-perl/LWP-Protocol-https-6.110.0 
[ebuild   R    ] app-portage/genlop-0.30.12 
[ebuild   R    ] dev-util/intltool-0.51.0-r3 
[ebuild   R    ] app-text/xmltoman-0.6 
[ebuild   R    ] app-admin/system-config-printer-1.5.18-r2 
[ebuild   R    ] gnome-extra/polkit-gnome-0.105-r2 
[ebuild   R    ] xfce-base/libxfce4util-4.18.2 
[ebuild   R    ] dev-util/geany-2.0 
[ebuild   R    ] x11-themes/gnome-themes-standard-3.28 
[ebuild   R    ] net-dns/avahi-0.8-r7 
[ebuild   R    ] x11-themes/sound-theme-freedesktop-0.8 
[ebuild   R    ] media-libs/libmypaint-1.6.1-r2 
[ebuild   R    ] app-text/gtkspell-3.0.10-r1 
[ebuild   R    ] media-video/guvcview-2.0.8 
[ebuild   R    ] xfce-base/xfconf-4.18.3 
[ebuild   R    ] media-libs/libcanberra-0.30-r7 
[ebuild   R    ] xfce-base/tumbler-4.18.2 
[ebuild   R    ] dev-util/geany-plugins-2.0-r1 
[ebuild   R    ] net-print/hplip-3.23.12 
[ebuild   R    ] xfce-base/libxfce4ui-4.18.6 
[ebuild   R    ] xfce-base/exo-4.18.0 
[ebuild   R    ] xfce-base/garcon-4.18.2 
[ebuild   R    ] xfce-base/xfwm4-4.18.0 
[ebuild   R    ] x11-terms/xfce4-terminal-1.1.3 
[ebuild   R    ] app-editors/mousepad-0.6.2 
[ebuild   R    ] xfce-extra/xfce4-taskmanager-1.5.7 
[ebuild   R    ] xfce-base/xfce4-appfinder-4.18.1 
[ebuild   R    ] xfce-base/xfce4-settings-4.18.4 
[ebuild   R    ] app-cdr/xfburn-0.7.0 
[ebuild   R    ] xfce-extra/xfce4-screensaver-4.18.3 
[ebuild   R    ] x11-themes/xfwm4-themes-4.10.0-r2 
[ebuild   R    ] media-libs/libpulse-17.0 
[ebuild   R    ] media-plugins/alsa-plugins-1.2.7.1-r1 
[ebuild   R    ] media-sound/pavucontrol-5.0-r2 
[ebuild   R    ] www-client/firefox-bin-124.0.1 
[ebuild   R    ] media-sound/pulseaudio-daemon-17.0-r1 
[ebuild   R    ] x11-libs/gtk+-2.24.33-r3 
[ebuild   R    ] dev-libs/libdbusmenu-16.04.0-r2 
[ebuild   R    ] x11-themes/gtk-engines-adwaita-3.28 
[ebuild   R    ] media-gfx/gimp-2.10.36 
[ebuild   R    ] xfce-base/xfce4-panel-4.18.6 
[ebuild   R    ] dev-libs/libayatana-appindicator-0.5.92 
[ebuild   R    ] xfce-base/thunar-4.18.10 
[ebuild   R    ] xfce-base/xfce4-power-manager-4.18.3 
[ebuild   R    ] net-misc/remmina-1.4.31-r2 
[ebuild   R    ] xfce-extra/xfce4-pulseaudio-plugin-0.4.8 
[ebuild   R    ] xfce-extra/xfce4-screenshooter-1.10.5 
[ebuild   R    ] xfce-extra/xfce4-sensors-plugin-1.4.4 
[ebuild   R    ] xfce-base/thunar-volman-4.18.0 
[ebuild   R    ] xfce-base/xfdesktop-4.18.1 
[ebuild   R    ] x11-misc/xdg-user-dirs-0.18 
[ebuild   R    ] xfce-base/xfce4-session-4.18.3-r1 
[ebuild   R    ] x11-misc/xdg-user-dirs-gtk-0.11 
[ebuild   R    ] xfce-base/xfce4-meta-4.18-r1 
[ebuild   R    ] sys-devel/lld-17.0.6  USE="zstd*" 
[ebuild   R    ] sys-devel/lld-toolchain-symlinks-17 
[ebuild   R    ] app-editors/vim-9.0.2167 
[ebuild   R    ] app-vim/gentoo-syntax-13 
[ebuild   R    ] sys-devel/clang-common-17.0.6-r1 
[ebuild   R    ] sys-devel/clang-17.0.6 
[ebuild   R    ] sys-devel/clang-toolchain-symlinks-17 
[ebuild   R    ] sys-libs/compiler-rt-17.0.6 
[ebuild   R    ] sys-libs/compiler-rt-sanitizers-17.0.6 
[ebuild   R    ] media-tv/v4l-utils-1.22.1-r1 
[ebuild   R    ] www-client/chromium-122.0.6261.111 
[ebuild   R    ] sys-devel/clang-runtime-17.0.6 
[ebuild   R    ] sys-devel/bc-1.07.1-r6 
[ebuild   R    ] app-alternatives/bc-0 
[ebuild   R    ] sys-apps/man-pages-6.06 
[ebuild   R    ] sys-kernel/gentoo-sources-6.6.21 

